{
  "100":{
     "action":"sfdcDigest",
     "parameters":{
        "object":"MMCOMP__c",
        "fields":[
           {
              "name":"NO_CONS__c"
           },
           {
              "name":"NO_MGRS__c"
           },
           {
              "name":"ANN_CONTRIB__c"
           },
           {
              "name":"TOTAL_PS__c"
           },
           {
              "name":"DB_TOTAL__c"
           },
           {
              "name":"DC_TOTAL__c"
           },
           {
              "name":"EF_ASSETS__c"
           },
           {
              "name":"OT_ASSETS__c"
           },
           {
              "name":"Firm_Name__c"
           },
           {
             "name":"Id"
           }
        ]
     }
  },
  "101":{
     "action":"sfdcDigest",
     "parameters":{
        "object":"Account",
        "fields":[
           {
              "name":"ShippingCity"
           },
           {
              "name":"ShippingCountry"
           },
           {
              "name":"ShippingState"
           },
           {
              "name":"ShippingStreet"
           },
           {
              "name":"ShippingPostalCode"
           },
           {
              "name":"Category__c"
           },
           {
              "name":"Inst_l_Client__c"
           },
           {
              "name":"Inst_l_Prospect_Client_Flag__c"
           },
           {
              "name":"Prospect_Client_Territory__c"
           },
           {
              "name":"PGIM_Prospect_Tier__c"
           },
           {
              "name":"Account_Manager__c"
           },
           {
              "name":"Id"
           }
        ]
     }
  },
  "102":{
     "action":"sfdcDigest",
     "parameters":{
        "object":"User",
        "fields":[
           {
              "name":"Name"
           },
           {
              "name":"Id"
           }
        ]
     }
  },
  "103":{
     "action":"augment",
     "parameters":{
        "left":"100",
        "left_key":[
           "Firm_Name__c"
        ],
        "relationship":"Account",
        "right":"101",
        "right_key":[
           "Id"
        ],
        "right_select":[
           "ShippingCity",
           "ShippingCountry",
           "ShippingState",
           "ShippingStreet",
           "ShippingPostalCode",
           "Category__c",
           "Inst_l_Client__c",
           "Inst_l_Prospect_Client_Flag__c",
           "Prospect_Client_Territory__c",
           "PGIM_Prospect_Tier__c",
           "Account_Manager__c"
        ]
     }
  },
  "104":{
     "action":"augment",
     "parameters":{
        "left":"103",
        "left_key":[
           "Account.Account_Manager__c"
        ],
        "relationship":"Account.Account_Manager",
        "right":"102",
        "right_key":[
           "Id"
        ],
        "right_select":[
           "Name"
        ]
     }
  },
  "105":{
     "action":"sfdcRegister",
     "parameters":{
        "source":"104",
        "alias":"DS_PGIM_Firm_SF",
        "name":"DS_PGIM_Firm_SF"
     }
  }
}
