{
   "objects":[
      {
         "connector":"CSV",
         "fullyQualifiedName":"DS_PGIM_Firm_csv",
         "label":"DS_PGIM_Firm.csv",
         "name":"DS_PGIM_Firm_csv",
         "fields":[
           {
              "fullyQualifiedName":"firm_id",
              "name":"firm_id",
              "type":"Text",
              "label":"Firm SF Id"
           },
           {
              "fullyQualifiedName":"firm_name",
              "name":"firm_name",
              "type":"Text",
              "label":"Firm Name"
           },
           {
              "fullyQualifiedName":"shippingstreet",
              "name":"shippingstreet",
              "type":"Text",
              "label":"Address"
           },
           {
              "fullyQualifiedName":"shippingcity",
              "name":"shippingcity",
              "type":"Text",
              "label":"City"
           },
           {
              "fullyQualifiedName":"shippingstate",
              "name":"shippingstate",
              "type":"Text",
              "label":"State"
           },
           {
              "fullyQualifiedName":"shippingpostalcode",
              "name":"shippingpostalcode",
              "type":"Text",
              "label":"Zip"
           },
           {
              "fullyQualifiedName":"shippingcountry",
              "name":"shippingcountry",
              "type":"Text",
              "label":"Country"
           },
           {
              "fullyQualifiedName":"account_manager",
              "name":"account_manager",
              "type":"Text",
              "label":"Account Manager"
           },
           {
              "fullyQualifiedName":"pgim_prospect_tier__c",
              "name":"pgim_prospect_tier__c",
              "type":"Text",
              "label":"Prospect Tier"
           },
           {
              "fullyQualifiedName":"prospect_client_territory__c",
              "name":"prospect_client_territory__c",
              "type":"Text",
              "label":"Prospect Territory"
           },
           {
              "fullyQualifiedName":"category__c",
              "name":"category__c",
              "type":"Text",
              "label":"Category"
           },
           {
              "fullyQualifiedName":"active_inst_l_prospect__c",
              "name":"active_inst_l_prospect__c",
              "type":"Text",
              "label":"Active Prospect"
           },
           {
              "fullyQualifiedName":"inst_l_client__c",
              "name":"inst_l_client__c",
              "type":"Text",
              "label":"Active Client"
           },
           {
              "fullyQualifiedName":"db_total__c",
              "name":"db_total__c",
              "type":"Numeric",
              "label":"DB Assets",
              "precision":18,
              "defaultValue":"0",
              "scale":1
           },
           {
              "fullyQualifiedName":"dc_total__c",
              "name":"dc_total__c",
              "type":"Numeric",
              "label":"DC Assets",
              "precision":18,
              "defaultValue":"0",
              "scale":1
           },
           {
              "fullyQualifiedName":"ef_assets__c",
              "name":"ef_assets__c",
              "type":"Numeric",
              "label":"EF Assets",
              "precision":18,
              "defaultValue":"0",
              "scale":1
           },
           {
              "fullyQualifiedName":"ot_assets__c",
              "name":"ot_assets__c",
              "type":"Numeric",
              "label":"Other Assets",
              "precision":18,
              "defaultValue":"0",
              "scale":1
           },
           {
              "fullyQualifiedName":"total_ps__c",
              "name":"total_ps__c",
              "type":"Numeric",
              "label":"Total Assets",
              "precision":18,
              "defaultValue":"0",
              "scale":1
           },
           {
             "fullyQualifiedName":"firm_consultant_name",
             "name":"firm_consultant_name",
             "type":"Text",
             "isMultiValue":true,
             "multiValueSeparator": ";",
             "label":"Firm Consultant"
           },
           {
             "fullyQualifiedName":"firm_plan_manager_name",
             "name":"firm_plan_manager_name",
             "type":"Text",
             "isMultiValue":true,
             "multiValueSeparator": ";",
             "label":"Firm Plan Manager"
           },
           {
             "fullyQualifiedName":"firm_asset_type",
             "name":"firm_asset_type",
             "type":"Text",
             "isMultiValue":true,
             "multiValueSeparator": ";",
             "label":"Firm Asset Type"
           },
            {
               "fullyQualifiedName":"plan_id",
               "name":"plan_id",
               "type":"Text",
               "label":"Plan SF Id"
            },
            {
               "fullyQualifiedName":"plan_name__c",
               "name":"plan_name__c",
               "type":"Text",
               "label":"Plan Name"
            },
            {
               "fullyQualifiedName":"plan_type_desc__c",
               "name":"plan_type_desc__c",
               "type":"Text",
               "label":"Plan Type"
            },
            {
               "fullyQualifiedName":"assets__c",
               "name":"assets__c",
               "type":"Numeric",
               "label":"Assets",
               "precision":18,
               "defaultValue":"0",
               "scale":1
            },
            {
               "fullyQualifiedName":"participants__c",
               "name":"participants__c",
               "type":"Numeric",
               "label":"Participants",
               "precision":18,
               "defaultValue":"0",
               "scale":1
            },
            {
               "fullyQualifiedName":"plan_class",
               "name":"plan_class",
               "type":"Text",
               "label":"Plan Class"
            },
            {
              "fullyQualifiedName":"plan_consultant_name",
              "name":"plan_consultant_name",
              "type":"Text",
              "isMultiValue":true,
              "multiValueSeparator": ";",
              "label":"Consultant"
            },
            {
              "fullyQualifiedName":"plan_manager_name",
              "name":"plan_manager_name",
              "type":"Text",
              "isMultiValue":true,
              "multiValueSeparator": ";",
              "label":"Plan Manager"
            },
            {
              "fullyQualifiedName":"plan_asset_type",
              "name":"plan_asset_type",
              "type":"Text",
              "isMultiValue":true,
              "multiValueSeparator": ";",
              "label":"Asset Type"
            }
         ]
      }
   ]
}
