{
  "_container": {
    "_container": "0FK13000000Kyk4GAC",
    "_type": "container"
  },
  "lastRefresh": 1447785656,
  "_type": "dashboard",
  "_createdDateTime": 1447779774,
  "_lastModifiedBy": {
    "_type": "user",
    "name": "Andrew Beder",
    "_uid": "0051300000C0ZmhAAF",
    "profilePhotoUrl": "https://c.na19.content.force.com/profilephoto/005/T"
  },
  "description": "",
  "_createdBy": {
    "_type": "user",
    "name": "Andrew Beder",
    "_uid": "0051300000C0ZmhAAF",
    "profilePhotoUrl": "https://c.na19.content.force.com/profilephoto/005/T"
  },
  "assetPreviewAllow": true,
  "stateVersion": 1,
  "folder": {
    "_type": "folder",
    "name": "PRM Reporting",
    "_uid": "00l13000003VsFvAAK"
  },
  "_files": {
    "assetPreviewThumb": {
      "fileName": "assetPreviewThumb",
      "fileSize": 9602,
      "lensId": "0FK13000000Kyk4GAC",
      "_type": "lensfile",
      "lastModified": 1448016227,
      "_url": "/insights/internal_api/v1.0/esObject/lens/0FK13000000Kyk4GAC/lensfile/0FJ13000000Kyk4GAC/data?lastModified=1448016227",
      "_uid": "0FJ13000000Kyk4GAC",
      "contentType": "image/png"
    }
  },
  "name": "Green Sheets Trending",
  "_permissions": {
    "modify": true,
    "view": true
  },
  "lastModified": 1448016225,
  "assetSharingUrl": "https://na19.salesforce.com/analytics/wave/dashboard?assetId=0FK13000000Kyk4GAC&orgId=00D30000000Xw8g&loginHost=na19.salesforce.com&urlType=sharing",
  "state": {
    "widgets": {
      "box_9": {
        "pos": {
          "w": 210,
          "x": 1110,
          "h": 60,
          "y": 10,
          "zIndex": 26
        },
        "type": "BoxWidget",
        "params": {
          "backgroundColor": "rgb(255, 255, 255)",
          "borderColor": "rgba(0, 0, 0, 0)"
        }
      },
      "cs_box_legend_blue_1": {
        "pos": {
          "w": 180,
          "x": 1120,
          "h": 1,
          "y": 10,
          "zIndex": 0
        },
        "type": "BoxWidget",
        "params": {
          "backgroundColor": "rgb(20, 150, 210)",
          "borderColor": "rgba(0, 0, 0, 0)"
        }
      },
      "cs_box_legend_green_1": {
        "pos": {
          "w": 180,
          "x": 1120,
          "h": 1,
          "y": 10,
          "zIndex": 0
        },
        "type": "BoxWidget",
        "params": {
          "backgroundColor": "rgb(117, 224, 208)",
          "borderColor": "rgba(0, 0, 0, 0)"
        }
      },
      "cs_box_legend_blue_2": {
        "pos": {
          "w": 180,
          "x": 1120,
          "h": 1,
          "y": 10,
          "zIndex": 0
        },
        "type": "BoxWidget",
        "params": {
          "backgroundColor": "rgb(20, 150, 210)",
          "borderColor": "rgba(0, 0, 0, 0)"
        }
      },
      "cs_box_legend_green_2": {
        "pos": {
          "w": 180,
          "x": 1120,
          "h": 1,
          "y": 10,
          "zIndex": 0
        },
        "type": "BoxWidget",
        "params": {
          "backgroundColor": "rgb(117, 224, 208)",
          "borderColor": "rgba(0, 0, 0, 0)"
        }
      },
      "cs_box_bar_1": {
        "pos": {
          "w": 180,
          "x": 1120,
          "h": 1,
          "y": 10,
          "zIndex": 0
        },
        "type": "BoxWidget",
        "params": {
          "backgroundColor": "rgb(107, 169, 215)",
          "borderColor": "rgba(0, 0, 0, 0)"
        }
      },
      "cs_box_bar_2": {
        "pos": {
          "w": 180,
          "x": 1120,
          "h": 1,
          "y": 10,
          "zIndex": 0
        },
        "type": "BoxWidget",
        "params": {
          "backgroundColor": "rgb(218, 231, 240)",
          "borderColor": "rgba(107, 169, 215, 0.5)"
        }
      },
      "cs_box_bar_3": {
        "pos": {
          "w": 180,
          "x": 1120,
          "h": 1,
          "y": 10,
          "zIndex": 0
        },
        "type": "BoxWidget",
        "params": {
          "backgroundColor": "rgb(107, 169, 215)",
          "borderColor": "rgba(0, 0, 0, 0)"
        }
      },
      "cs_box_header_1": {
        "pos": {
          "w": 180,
          "x": 1120,
          "h": 1,
          "y": 10,
          "zIndex": 6
        },
        "type": "BoxWidget",
        "params": {
          "backgroundColor": "rgb(26, 127, 186)",
          "borderColor": "rgba(0, 0, 0, 0)"
        }
      },
      "cs_box_putnam_logo": {
        "pos": {
          "w": 240,
          "x": 0,
          "h": 70,
          "y": 0,
          "zIndex": 22
        },
        "type": "BoxWidget",
        "params": {
          "imgUrl": "015a00000036jI2",
          "backgroundColor": "rgba(0, 140, 201, 0)",
          "borderColor": "rgba(0, 0, 0, 0)"
        }
      },
      "cs_box_s1c1": {
        "pos": {
          "w": 180,
          "x": 1120,
          "h": 1,
          "y": 10,
          "zIndex": 6
        },
        "type": "BoxWidget",
        "params": {
          "backgroundColor": "rgb(107, 169, 215)",
          "borderColor": "rgba(0, 0, 0, 0)"
        }
      },
      "cs_box_s1c2": {
        "pos": {
          "w": 180,
          "x": 1120,
          "h": 1,
          "y": 10,
          "zIndex": 6
        },
        "type": "BoxWidget",
        "params": {
          "backgroundColor": "rgb(107, 169, 215)",
          "borderColor": "rgba(0, 0, 0, 0)"
        }
      },
      "cs_box_s1c3": {
        "pos": {
          "w": 180,
          "x": 1120,
          "h": 1,
          "y": 10,
          "zIndex": 6
        },
        "type": "BoxWidget",
        "params": {
          "backgroundColor": "rgb(107, 169, 215)",
          "borderColor": "rgba(0, 0, 0, 0)"
        }
      },
      "cs_box_s1c4": {
        "pos": {
          "w": 180,
          "x": 1120,
          "h": 1,
          "y": 10,
          "zIndex": 0
        },
        "type": "BoxWidget",
        "params": {
          "backgroundColor": "rgb(107, 169, 215)",
          "borderColor": "rgba(0, 0, 0, 0)"
        }
      },
      "cs_chart_product_sales": {
        "pos": {
          "w": 630,
          "x": 730,
          "h": 260,
          "y": 540,
          "zIndex": 0
        },
        "type": "ChartWidget",
        "params": {
          "legend": true,
          "chartType": "pie",
          "step": "cs_step_product_sales"
        }
      },
      "cs_chart_region_sales": {
        "pos": {
          "w": 630,
          "x": 730,
          "h": 210,
          "y": 50,
          "zIndex": 1
        },
        "type": "ChartWidget",
        "params": {
          "chartType": "hbar",
          "step": "cs_step_region_sales",
          "exploreLink": false
        }
      },
      "cs_chart_territory_sales": {
        "pos": {
          "w": 630,
          "x": 730,
          "h": 260,
          "y": 230,
          "zIndex": 4
        },
        "type": "ChartWidget",
        "params": {
          "chartType": "hbar",
          "step": "cs_step_territory_sales",
          "exploreLink": false
        }
      },
      "cs_chart_trending_prior_year": {
        "pos": {
          "w": 650,
          "x": 20,
          "h": 260,
          "y": 540,
          "zIndex": 6
        },
        "type": "ChartWidget",
        "params": {
          "legend": true,
          "chartType": "time",
          "step": "cs_step_week_sales_cumulative_prior_year",
          "exploreLink": false
        }
      },
      "cs_chart_trending_sales_goal": {
        "pos": {
          "w": 650,
          "x": 20,
          "h": 260,
          "y": 250,
          "zIndex": 6
        },
        "type": "ChartWidget",
        "params": {
          "legend": true,
          "chartType": "time",
          "step": "cs_step_week_sales_cumulative",
          "exploreLink": false
        }
      },
      "cs_filter_date": {
        "pos": {
          "w": 220,
          "x": 260,
          "h": 50,
          "y": 10,
          "zIndex": 100003
        },
        "type": "DateSelector",
        "params": {
          "expanded": false,
          "step": "cs_step_week"
        }
      },
      "cs_filter_product": {
        "pos": {
          "w": 140,
          "x": 530,
          "h": 50,
          "y": 80,
          "zIndex": 100000
        },
        "type": "ListSelector",
        "params": {
          "expanded": false,
          "step": "cs_step_product_sales",
          "title": "Product"
        }
      },
      "cs_filter_region": {
        "pos": {
          "w": 170,
          "x": 20,
          "h": 50,
          "y": 80,
          "zIndex": 100001
        },
        "type": "ListSelector",
        "params": {
          "expanded": false,
          "step": "cs_step_region_sales"
        }
      },
      "cs_filter_territory": {
        "pos": {
          "w": 240,
          "x": 240,
          "h": 50,
          "y": 80,
          "zIndex": 100002
        },
        "type": "ListSelector",
        "params": {
          "expanded": false,
          "step": "cs_step_territory_sales"
        }
      },
      "cs_filter_week": {
        "pos": {
          "w": 140,
          "x": 530,
          "h": 50,
          "y": 10,
          "zIndex": 100004
        },
        "type": "ListSelector",
        "params": {
          "expanded": false,
          "compact": true,
          "measureField": "sum_sales_amount",
          "step": "cs_step_week_text"
        }
      },
      "cs_header_green_sheets": {
        "pos": {
          "x": 1120,
          "y": 10,
          "zIndex": 7
        },
        "type": "TextWidget",
        "params": {
          "fontSize": 24,
          "text": "Green Sheets",
          "textColor": "rgb(255, 255, 255)"
        }
      },
      "cs_number_run_rate": {
        "pos": {
          "w": 160,
          "x": 350,
          "y": 150,
          "zIndex": 20
        },
        "type": "NumberWidget",
        "params": {
          "compact": true,
          "textAlignment": "center",
          "measureField": "sum_run_rate",
          "step": "cs_step_amount_run_rate",
          "fontSize": 24,
          "textColor": "rgb(24, 48, 92)",
          "exploreLink": false,
          "title": ""
        }
      },
      "cs_number_run_rate_last_week": {
        "pos": {
          "w": 160,
          "x": 510,
          "y": 150,
          "zIndex": 20
        },
        "type": "NumberWidget",
        "params": {
          "compact": true,
          "textAlignment": "center",
          "measureField": "sum_run_rate",
          "step": "cs_step_amount_run_rate_last_week",
          "fontSize": 24,
          "textColor": "rgb(52, 74, 95)",
          "exploreLink": false,
          "title": ""
        }
      },
      "cs_number_sales": {
        "pos": {
          "w": 160,
          "x": 20,
          "y": 150,
          "zIndex": 20
        },
        "type": "NumberWidget",
        "params": {
          "compact": true,
          "textAlignment": "center",
          "measureField": "sum_sales_amount",
          "step": "cs_step_amount_sales",
          "fontSize": 24,
          "textColor": "rgb(52, 74, 95)",
          "exploreLink": false,
          "title": ""
        }
      },
      "cs_number_sales_last_week": {
        "pos": {
          "w": 160,
          "x": 180,
          "y": 150,
          "zIndex": 20
        },
        "type": "NumberWidget",
        "params": {
          "compact": true,
          "textAlignment": "center",
          "measureField": "sum_sales_amount",
          "step": "cs_step_amount_sales_last_week",
          "fontSize": 24,
          "textColor": "rgb(52, 74, 95)",
          "exploreLink": false,
          "title": ""
        }
      },
      "cs_text_label_sales_total": {
        "pos": {
          "x": 250,
          "y": 220,
          "zIndex": 5
        },
        "type": "TextWidget",
        "params": {
          "fontSize": 16,
          "text": "Sales Total",
          "textColor": "rgb(24, 48, 92)"
        }
      },
      "cs_text_legend_goal": {
        "pos": {
          "x": 250,
          "y": 220,
          "zIndex": 5
        },
        "type": "TextWidget",
        "params": {
          "fontSize": 16,
          "text": "Goal",
          "textAlignment":  "left",
          "textColor": "rgb(24, 48, 92)"
        }
      },
      "cs_text_legend_sales": {
        "pos": {
          "x": 250,
          "y": 220,
          "zIndex": 5
        },
        "type": "TextWidget",
        "params": {
          "fontSize": 16,
          "text": "Sales",
          "textAlignment":  "left",
          "textColor": "rgb(24, 48, 92)"
        }
      },
      "cs_text_legend_cy": {
        "pos": {
          "x": 250,
          "y": 220,
          "zIndex": 5
        },
        "type": "TextWidget",
        "params": {
          "fontSize": 16,
          "text": "Current Year",
          "textAlignment":  "left",
          "textColor": "rgb(24, 48, 92)"
        }
      },
      "cs_text_legend_py": {
        "pos": {
          "x": 250,
          "y": 220,
          "zIndex": 5
        },
        "type": "TextWidget",
        "params": {
          "fontSize": 16,
          "text": "Prior Year",
          "textAlignment":  "left",
          "textColor": "rgb(24, 48, 92)"
        }
      },
      "cs_text_label_sales_last_week": {
        "pos": {
          "x": 250,
          "y": 220,
          "zIndex": 5
        },
        "type": "TextWidget",
        "params": {
          "fontSize": 16,
          "text": "Last Sales Week",
          "textColor": "rgb(24, 48, 92)"
        }
      },
      "cs_text_label_run_rate": {
        "pos": {
          "x": 250,
          "y": 220,
          "zIndex": 5
        },
        "type": "TextWidget",
        "params": {
          "fontSize": 16,
          "text": "Run Rate",
          "textColor": "rgb(24, 48, 92)"
        }
      },
      "cs_text_label_run_rate_last_week": {
        "pos": {
          "x": 250,
          "y": 220,
          "zIndex": 5
        },
        "type": "TextWidget",
        "params": {
          "fontSize": 16,
          "text": "R/R Last Sales Week",
          "textColor": "rgb(24, 48, 92)"
        }
      },
      "cs_text_sales_against_goal": {
        "pos": {
          "x": 250,
          "y": 220,
          "zIndex": 5
        },
        "type": "TextWidget",
        "params": {
          "fontSize": 22,
          "text": "Sales against Goal"
        }
      },
      "cs_text_sales_against_prior_year": {
        "pos": {
          "x": 1120,
          "y": 10,
          "zIndex": 7
        },
        "type": "TextWidget",
        "params": {
          "fontSize": 22,
          "text": "Sales against Prior Year",
          "textColor": "rgb(0, 0, 0)"
        }
      },
      "cs_text_sales_by_region": {
        "pos": {
          "x": 1120,
          "y": 10,
          "zIndex": 7
        },
        "type": "TextWidget",
        "params": {
          "fontSize": 22,
          "text": "Sales by Region",
          "textColor": "rgb(0, 0, 0)"
        }
      },
      "cs_text_sales_by_region_territory": {
        "pos": {
          "x": 880,
          "y": 10,
          "zIndex": 27
        },
        "type": "TextWidget",
        "params": {
          "fontSize": 22,
          "text": "Sales by Region and Territory"
        }
      },
      "cs_text_sales_by_territory": {
        "pos": {
          "x": 1120,
          "y": 10,
          "zIndex": 7
        },
        "type": "TextWidget",
        "params": {
          "fontSize": 22,
          "text": "Sales by Territory",
          "textColor": "rgb(0, 0, 0)"
        }
      },
      "cs_text_sales_product": {
        "pos": {
          "x": 940,
          "y": 500,
          "zIndex": 7
        },
        "type": "TextWidget",
        "params": {
          "fontSize": 22,
          "text": "Sales by Product Class"
        }
      },
      "cs_toggle_region_mtype": {
        "pos": {
          "w": 170,
          "x": 1230,
          "y": 0,
          "zIndex": 27
        },
        "type": "PillBox",
        "params": {
          "selectMode": "single_required",
          "measureField": "",
          "step": "cs_step_static_region_mtype"
        }
      },
      "cs_toggle_trend_mtype": {
        "pos": {
          "w": 170,
          "x": 500,
          "y": 200,
          "zIndex": 27
        },
        "type": "PillBox",
        "params": {
          "selectMode": "single_required",
          "measureField": "",
          "step": "cs_step_static_trend_mtype"
        }
      },
      "text_6": {
        "pos": {
          "x": 220,
          "y": 510,
          "zIndex": 17
        },
        "type": "TextWidget",
        "params": {
          "fontSize": 22,
          "text": "Sales against Prior Year"
        }
      }
    },
    "steps": {
      "cs_step_amount_run_rate": {
        "selectMode": "single",
        "query": {
          "measures": [
            [
              "sum",
              "run_rate"
            ]
          ],
          "pigql": "q = load \"DS_Sales_Objective\";\nq = filter q by measure_name == \"Sales\";\nq = filter q by region_name in {{ selection(cs_step_region_sales) }};\nq = filter q by territory_name in {{ selection(cs_step_territory_sales) }};\nq = filter q by date('week_end_Year', 'week_end_Month', 'week_end_Day') in {{ selection(cs_step_week) }};\nq = filter q by week_end_text in {{ selection(cs_step_week_text) }};\nq = group q by all;\nq = foreach q generate sum('sales_amount') / sum('goal_amount') as 'sum_run_rate';\n"
        },
        "extra": {
          "chartType": "hbar"
        },
        "em": "DS_Sales_Objective",
        "isGlobal": false,
        "start": null,
        "useGlobal": true,
        "type": "aggregate",
        "isFacet": true
      },
      "cs_step_amount_run_rate_last_week": {
        "selectMode": "single",
        "query": {
          "measures": [
            [
              "sum",
              "run_rate"
            ]
          ],
          "pigql": "q = load \"DS_Sales_Objective\";\nq = filter q by measure_name == \"Sales\";\nq = filter q by region_name in {{ selection(cs_step_region_sales) }};\nq = filter q by territory_name in {{ selection(cs_step_territory_sales) }};\nq = filter q by date('week_end_Year', 'week_end_Month', 'week_end_Day') in {{ selection(cs_step_week) }};\nq = group q by (week_end_Year, week_end_Week);\nq = foreach q generate week_end_Year, week_end_Week, sum('sales_amount') / sum(goal_amount) as 'sum_run_rate';\nq = order q by (week_end_Year desc, week_end_Week desc);\nq = limit q 1;\n"
        },
        "extra": {
          "chartType": "hbar"
        },
        "em": "DS_Sales_Objective",
        "isGlobal": false,
        "start": null,
        "useGlobal": true,
        "type": "aggregate",
        "isFacet": true
      },
      "cs_step_amount_sales": {
        "selectMode": "single",
        "query": {
          "measures": [
            [
              "sum",
              "sales_amount"
            ]
          ],
          "pigql": "q = load \"DS_Sales_Objective\";\nq = filter q by measure_name == \"Sales\";\nq = filter q by region_name in {{ selection(cs_step_region_sales) }};\nq = filter q by territory_name in {{ selection(cs_step_territory_sales) }};\nq = filter q by product_class in {{ selection(cs_step_product_sales) }};\nq = filter q by date('week_end_Year', 'week_end_Month', 'week_end_Day') in {{ selection(cs_step_week) }};\nq = filter q by week_end_text in {{ selection(cs_step_week_text) }};\nq = group q by all;\nq = foreach q generate sum('sales_amount') as 'sum_sales_amount';\nq = limit q 2000;\n"
        },
        "extra": {
          "chartType": "hbar"
        },
        "em": "DS_Sales_Objective",
        "isGlobal": false,
        "start": null,
        "useGlobal": true,
        "type": "aggregate",
        "isFacet": true
      },
      "cs_step_amount_sales_last_week": {
        "selectMode": "single",
        "query": {
          "measures": [
            [
              "sum",
              "sales_amount"
            ]
          ],
          "pigql": "q = load \"DS_Sales_Objective\";\nq = filter q by measure_name == \"Sales\";\nq = filter q by region_name in {{ selection(cs_step_region_sales) }};\nq = filter q by territory_name in {{ selection(cs_step_territory_sales) }};\nq = filter q by product_class in {{ selection(cs_step_product_sales) }};\nq = filter q by date('week_end_Year', 'week_end_Month', 'week_end_Day') in {{ selection(cs_step_week) }};\nq = group q by (week_end_Year, week_end_Week);\nq = foreach q generate week_end_Year, week_end_Week, sum('sales_amount') as 'sum_sales_amount';\nq = order q by (week_end_Year desc, week_end_Week desc);\nq = limit q 1;\n",
          "limit": 1,
          "groups": [
            "week_end_Year",
            "week_end_Month"
          ],
          "order": [
            [
              "week_end_Year",
              {
                "ascending": false
              },
              "week_end_Month",
              {
                "ascending": false
              }
            ]
          ]
        },
        "extra": {
          "chartType": "hbar"
        },
        "em": "DS_Sales_Objective",
        "isGlobal": false,
        "start": null,
        "useGlobal": true,
        "type": "aggregate",
        "isFacet": true
      },
      "cs_step_first_sales_cumulative": {
        "selectMode": "single",
        "query": {
          "measures": [
            [
              "sum",
              "sales_cumulative"
            ]
          ],
          "pigql": "q = load \"DS_Sales_Objective\";\nq = filter q by measure_name == \"Sales\";\nq = filter q by measure_name == \"Sales\";\nq = filter q by region_name in {{ selection(cs_step_region_sales) }};\nq = filter q by territory_name in {{ selection(cs_step_territory_sales) }};\nq = filter q by product_class in {{ selection(cs_step_product_sales) }};\nc = filter q by date('week_end_Year', 'week_end_Month', 'week_end_Day') in {{ selection(cs_step_week) }};\nc = group c by (week_end_Year, week_end_Week);\nc = foreach c generate week_end_Year, week_end_Week, sum(sales_cumulative) - sum(sales_amount) as sales_cumulative, sum(goal_cumulative) - sum(goal_amount) as goal_cumulative, sum(sales_cumulative) * 0 as py_sales_cumulative;\nc = limit c 1;\np = filter q by date('py_week_end_Year', 'py_week_end_Month', 'py_week_end_Day') in {{ selection(cs_step_week) }};\np = group p by (week_end_Year, week_end_Week);\np = foreach p generate week_end_Year, week_end_Week, sum(sales_cumulative) * 0 as sales_cumulative, sum(goal_cumulative) * 0 as goal_cumulative, sum(sales_cumulative) - sum(sales_amount) as py_sales_cumulative;\np = limit p 1;\nq = union p, c;\nq = group q by all;\nq = foreach q generate sum(sales_cumulative) as sales_cumulative, sum(sales_cumulative) * 0 as sales_amount, sum(sales_cumulative) as sum_sales_cumulative, sum(goal_cumulative) as sum_goal_cumulative, sum(py_sales_cumulative) as sum_py_sales_cumulative;\n",
          "filters": [
            [
              "measure_name",
              [
                "Sales"
              ],
              "in"
            ]
          ]
        },
        "extra": {
          "chartType": "hbar"
        },
        "em": "DS_Sales_Objective",
        "isGlobal": false,
        "start": null,
        "useGlobal": true,
        "type": "aggregate",
        "isFacet": true
      },
      "cs_step_product_sales": {
        "selectMode": "single",
        "query": {
          "measures": [
            [
              "sum",
              "sales_amount"
            ]
          ],
          "groups": [
            "product_class"
          ],
          "order": [
            [
              -1,
              {
                "ascending": false
              }
            ]
          ]
        },
        "extra": {
          "chartType": "hbar"
        },
        "em": "DS_Sales_Objective",
        "isGlobal": false,
        "start": null,
        "useGlobal": true,
        "type": "aggregate",
        "isFacet": true
      },
      "cs_step_region_sales": {
        "selectMode": "single",
        "extra": {
          "chartType": "hbar"
        },
        "query": {
          "measures": [
            [
              "sum",
              "{{selection(cs_step_static_region_mtype)}}"
            ]
          ],
          "pigql": "q = load \"DS_Sales_Objective\";\nq = filter q by measure_name == \"Sales\";\nq = filter q by region_name in {{ selection(cs_step_region_sales) }};\nq = filter q by region_name not in {{selection(cs_step_static_region_mtype)}};\nq = filter q by territory_name in {{ selection(cs_step_territory_sales) }};\nq = filter q by product_class in {{ selection(cs_step_product_sales) }};\nq = filter q by week_end_text in {{ selection(cs_step_week_text) }};\nq = group q by 'region_name';\nq = foreach q generate 'region_name' as 'region_name', sum('sales_amount') as 'sum_sales_amount', sum('sales_amount') / sum('goal_amount') as 'sum_run_rate';\nq = order q by 'sum_sales_amount' desc;\nq = limit q 2000;\n",
          "groups": [
            "region_name"
          ],
          "order": [
            [
              -1,
              {
                "ascending": false
              }
            ]
          ]
        },
        "em": "DS_Sales_Objective",
        "isGlobal": false,
        "start": null,
        "useGlobal": true,
        "type": "aggregate",
        "isFacet": true
      },
      "cs_step_static_region_mtype": {
        "selectMode": "single_required",
        "values": [
          {
            "display": "Sales",
            "value": [
              "sales_amount"
            ]
          },
          {
            "display": "Run Rate",
            "value": [
              "run_rate"
            ]
          }
        ],
        "isGlobal": false,
        "start": [
          [
            "sales_amount"
          ]
        ],
        "useGlobal": false,
        "type": "static",
        "isFacet": false
      },
      "cs_step_static_trend_mtype": {
        "selectMode": "single_required",
        "values": [
          {
            "display": "Amount",
            "value": [
              "Amount"
            ]
          },
          {
            "display": "Cumulative",
            "value": [
              "Cumulative"
            ]
          }
        ],
        "isGlobal": false,
        "start": [
          [
            "Amount"
          ]
        ],
        "useGlobal": false,
        "type": "static",
        "isFacet": false
      },
      "cs_step_territory_sales": {
        "selectMode": "single",
        "query": {
          "measures": [
            [
              "sum",
              "{{selection(cs_step_static_region_mtype)}}"
            ]
          ],
          "pigql": "q = load \"DS_Sales_Objective\";\nq = filter q by measure_name == \"Sales\";\nq = filter q by region_name in {{ selection(cs_step_region_sales) }};\nq = filter q by region_name not in {{selection(cs_step_static_region_mtype)}};\nq = filter q by territory_name in {{ selection(cs_step_territory_sales) }};\nq = filter q by product_class in {{ selection(cs_step_product_sales) }};\nq = filter q by date('week_end_Year', 'week_end_Month', 'week_end_Day') in {{ selection(cs_step_week) }};\nq = filter q by week_end_text in {{ selection(cs_step_week_text) }};\nq = group q by 'territory_name';\nq = foreach q generate 'territory_name' as 'territory_name', sum('sales_amount') as 'sum_sales_amount', sum('sales_amount') / sum('goal_amount') as 'sum_run_rate';\nq = order q by 'sum_sales_amount' desc;\nq = limit q 2000;\n",
          "groups": [
            "territory_name"
          ],
          "order": [
            [
              -1,
              {
                "ascending": false
              }
            ]
          ]
        },
        "extra": {
          "chartType": "hbar"
        },
        "em": "DS_Sales_Objective",
        "isGlobal": false,
        "start": null,
        "useGlobal": true,
        "type": "aggregate",
        "isFacet": true
      },
      "cs_step_week": {
        "selectMode": "single",
        "query": {
          "measures": [
            [
              "sum",
              "sales_amount"
            ]
          ],
          "groups": [
            [
              "week_end_Year",
              "week_end_Week"
            ]
          ],
          "filters": [
            [
              "week_end",
              [
                [
                  [
                    "year",
                    0
                  ],
                  [
                    "year",
                    1
                  ]
                ]
              ],
              ">=<="
            ]
          ]
        },
        "em": "DS_Sales_Objective",
        "start": [
          [
            [
              "year",
              0
            ],
            [
              "year",
              1
            ]
          ]
        ],
        "isGlobal": false,
        "useGlobal": false,
        "type": "aggregate",
        "isFacet": true
      },
      "cs_step_week_end": {
        "selectMode": "single",
        "query": {
          "measures": [
            [
              "sum",
              "sales_amount"
            ]
          ],
          "pigql": "q = load \"DS_Sales_Objective\";\nq = filter q by date('week_end_Year', 'week_end_Month', 'week_end_Day') in {{ selection(cs_step_week) }};\nq = filter q by week_end_text in {{ selection(cs_step_week_text) }};\nq = group q by 'week_end_text';\nq = foreach q generate week_end_text, max(week_end_day_epoch) as 'week_end_day_epoch';\nq = order q by 'week_end_text' desc;\nq = limit q 1;\n",
          "groups": [
            "week_end_text"
          ],
          "filters": [
            [
              "week_end",
              [
                [
                  [
                    "year",
                    0
                  ],
                  [
                    "year",
                    1
                  ]
                ]
              ],
              ">=<="
            ]
          ],
          "aggregateFilters": [
            [
              [
                "sum",
                "sales_amount"
              ],
              [
                [
                  0
                ]
              ],
              ">"
            ]
          ],
          "order": [
            [
              "week_end_text",
              {
                "ascending": false
              }
            ]
          ]
        },
        "extra": {
          "chartType": "hbar"
        },
        "em": "DS_Sales_Objective",
        "isGlobal": false,
        "start": null,
        "useGlobal": true,
        "type": "aggregate",
        "isFacet": false
      },
      "cs_step_week_inital_cumulative": {
        "selectMode": "single",
        "query": {
          "measures": [
            [
              "sum",
              "sales_cumulative"
            ]
          ],
          "groups": [
            [
              "week_end_Year",
              "week_end_Week"
            ]
          ],
          "filters": [
            [
              "measure_name",
              [
                "Sales"
              ],
              "in"
            ]
          ]
        },
        "extra": {
          "chartType": "time"
        },
        "em": "DS_Sales_Objective",
        "isGlobal": false,
        "start": null,
        "useGlobal": true,
        "type": "aggregate",
        "isFacet": true
      },
      "cs_step_week_sales": {
        "selectMode": "single",
        "query": {
          "measures": [
            [
              "sum",
              "sales_amount"
            ]
          ],
          "groups": [
            [
              "week_end_Year",
              "week_end_Week"
            ]
          ]
        },
        "extra": {
          "chartType": "hbar"
        },
        "em": "DS_Sales_Objective",
        "isGlobal": false,
        "start": [
          [
            [
              "year",
              0
            ],
            [
              "year",
              1
            ]
          ]
        ],
        "useGlobal": true,
        "type": "aggregate",
        "isFacet": true
      },
      "cs_step_week_sales_cumulative": {
        "selectMode": "single",
        "query": {
          "measures": [
            [
              "sum",
              "{{selection(cs_step_static_trend_mtype)}}"
            ]
          ],
          "pigql": "q = load \"DS_Sales_Objective\";\nq = filter q by measure_name == \"Sales\";\nq = filter q by region_name in {{ selection(cs_step_region_sales) }};\nq = filter q by region_name not in {{selection(cs_step_static_trend_mtype)}};\nq = filter q by territory_name in {{ selection(cs_step_territory_sales) }};\nq = filter q by date('week_end_Year', 'week_end_Month', 'week_end_Day') in {{ selection(cs_step_week) }};\nq = filter q by week_end_day_epoch <= {{ value(results(cs_step_week_end, 'week_end_day_epoch')) }};\nq = group q by ('week_end_Year', 'week_end_Month', 'week_end_Day');\nl = foreach q generate 'week_end_Year' + \"~~~\" + 'week_end_Month' + \"~~~\" + 'week_end_Day' as 'week_end_Year~~~week_end_Month~~~week_end_Day', \"Sales\" as measure_name, sum(sales_amount) as 'sum_Amount', sum(sales_cumulative) - {{value(results(cs_step_first_sales_cumulative, 'sum_sales_cumulative'))}} as 'sum_Cumulative';\nr = foreach q generate 'week_end_Year' + \"~~~\" + 'week_end_Month' + \"~~~\" + 'week_end_Day' as 'week_end_Year~~~week_end_Month~~~week_end_Day', \"Goal\" as measure_name, sum('goal_amount') as 'sum_Amount', sum('goal_cumulative') - {{value(results(cs_step_first_sales_cumulative, 'sum_goal_cumulative'))}} as 'sum_Cumulative';\nq = union l, r;\nq = order q by measure_name desc;\n",
          "groups": [
            [
              "week_end_Year",
              "week_end_Month",
              "week_end_Day"
            ],
            "measure_name"
          ],
          "filters": [
            [
              "is_sales_date",
              [
                "t"
              ],
              "in"
            ]
          ]
        },
        "extra": {
          "chartType": "time"
        },
        "em": "DS_Sales_Objective",
        "isGlobal": false,
        "start": null,
        "useGlobal": true,
        "type": "aggregate",
        "isFacet": true
      },
      "cs_step_week_sales_cumulative_prior_year": {
        "selectMode": "single",
        "query": {
          "measures": [
            [
              "sum",
              "{{selection(cs_step_static_trend_mtype)}}"
            ]
          ],
          "pigql": "q = load \"DS_Sales_Objective\";\nq = filter q by measure_name == \"Sales\";\nq = filter q by region_name in {{ selection(cs_step_region_sales) }};\nq = filter q by region_name not in {{selection(cs_step_static_trend_mtype)}};\nq = filter q by territory_name in {{ selection(cs_step_territory_sales) }};\nq = filter q by product_class in {{ selection(cs_step_product_sales) }};\nq = group q by ('week_end_Year', 'week_end_Month', 'week_end_Day', py_week_end_Year, py_week_end_Month, py_week_end_Day);\nl = filter q by date('week_end_Year', 'week_end_Month', 'week_end_Day') in [\"current year\"..\"current day\"];\nl = filter l by week_end_day_epoch <= {{ value(results(cs_step_week_end, 'week_end_day_epoch')) }};\nl = foreach l generate 'week_end_Year' + \"~~~\" + 'week_end_Month' + \"~~~\" + 'week_end_Day' as 'week_end_Year~~~week_end_Month~~~week_end_Day', \"CY Sales\" as measure_name, sum('sales_amount') as 'sum_Amount', sum('sales_cumulative') - {{value(results(cs_step_first_sales_cumulative, 'sum_sales_cumulative'))}} as 'sum_Cumulative';\np = filter q by date('py_week_end_Year', 'py_week_end_Month', 'py_week_end_Day') in [\"current year\"..\"current day\"];\np = filter p by py_week_end_day_epoch <= {{ value(results(cs_step_week_end, 'week_end_day_epoch')) }};\np = foreach p generate 'py_week_end_Year' + \"~~~\" + 'py_week_end_Month' + \"~~~\" + 'py_week_end_Day' as 'week_end_Year~~~week_end_Month~~~week_end_Day', \"PY Sales\" as measure_name, sum('sales_amount') as 'sum_Amount', sum('sales_cumulative') - {{value(results(cs_step_first_sales_cumulative, 'sum_py_sales_cumulative'))}} as 'sum_Cumulative';\nq = union l, p;\nq = order q by ('week_end_Year~~~week_end_Month~~~week_end_Day', measure_name desc);\n",
          "groups": [
            [
              "week_end_Year",
              "week_end_Month",
              "week_end_Day"
            ],
            "measure_name"
          ],
          "filters": [
            [
              "is_sales_date",
              [
                "t"
              ],
              "in"
            ]
          ]
        },
        "extra": {
          "chartType": "time"
        },
        "em": "DS_Sales_Objective",
        "isGlobal": false,
        "start": null,
        "useGlobal": true,
        "type": "aggregate",
        "isFacet": true
      },
      "cs_step_week_text": {
        "selectMode": "single",
        "query": {
          "measures": [
            [
              "sum",
              "sales_amount"
            ]
          ],
          "groups": [
            "week_end_text"
          ],
          "filters": [
            [
              "week_end",
              [
                [
                  [
                    "year",
                    0
                  ],
                  [
                    "year",
                    1
                  ]
                ]
              ],
              ">=<="
            ]
          ],
          "aggregateFilters": [
            [
              [
                "sum",
                "sales_amount"
              ],
              [
                [
                  0
                ]
              ],
              ">"
            ]
          ],
          "order": [
            [
              "week_end_text",
              {
                "ascending": false
              }
            ]
          ]
        },
        "extra": {
          "chartType": "hbar"
        },
        "em": "DS_Sales_Objective",
        "isGlobal": false,
        "start": null,
        "useGlobal": true,
        "type": "aggregate",
        "isFacet": false
      }
    },
    "layouts": {
      "default": {
        "page:0": [
          "cs_box_putnam_logo {colspan=6, hpad=-10, vpad=10} | row: {height=100}",
          "cs_box_header_1 {colspan=6, rowspan=3, hpad=-15, vpad=-5} | row: {height=10}",
          "cs_header_green_sheets {colspan=6, hpad=0, vpad=0}",
          "row: {height=10}",
          "cs_filter_region {colspan=2, hpad=5, vpad=5} | cs_filter_territory {colspan=4, hpad=5, vpad=5} | row: {height=65}",
          "cs_filter_week {colspan=3, hpad=5, vpad=5} | cs_filter_product {colspan=3, hpad=5, vpad=5} | row: {height=65}",
          "row: {height=10}",
          "cs_box_bar_1 {colspan=6, hpad=-15, vpad=-2} | row: {height=3}",
          "cs_box_bar_2 {colspan=6, rowspan=5, hpad=-15, vpad=-2} | row: {height=5}",
          "cs_number_sales {colspan=3} | cs_number_run_rate {colspan=3}",
          "cs_text_label_sales_total {colspan=3} | cs_text_label_run_rate {colspan=3}",
          "cs_number_sales_last_week {colspan=3} | cs_number_run_rate_last_week {colspan=3}",
          "cs_text_label_sales_last_week {colspan=3} | cs_text_label_run_rate_last_week {colspan=3}",
          "cs_box_bar_3 {colspan=6, hpad=-15, vpad=-2} | row: {height=3}",
          "cs_empty {colspan=3} | cs_toggle_trend_mtype {colspan=3, hpad=5, vpad=5}",
          "row: {height=10}",
          "cs_text_sales_against_goal {colspan=6, hpad=5, vpad=5}",
          "cs_box_legend_blue_1 {colspan=1, hpad=5, vpad=5} | cs_text_legend_goal {colspan=1, hpad=-15, vpad=5} | cs_box_legend_green_1 {colspan=1, hpad=5, vpad=5} | cs_text_legend_sales {colspan=1, hpad=-15, vpad=5} | row: {height=30}",
          "cs_box_s1c1 {colspan=6, zindex=-1}, cs_chart_trending_sales_goal {colspan=6, hpad=1, vpad=1} | row: {height=200}",
          "row: {height=10}",
          "cs_text_sales_against_prior_year {colspan=6, hpad=5, vpad=5} | row: {height=preferred}",
          "cs_box_legend_blue_2 {colspan=1, hpad=5, vpad=5} | cs_text_legend_cy {colspan=2, hpad=-15, vpad=5} | cs_box_legend_green_2 {colspan=1, hpad=5, vpad=5} | cs_text_legend_py {colspan=2, hpad=-15, vpad=5} | row: {height=30}",
          "cs_box_s1c2 {colspan=6, zindex=-1}, cs_chart_trending_prior_year {colspan=6, hpad=1, vpad=1} | row: {height=300}"
        ]
      }
    }
  },
  "_url": "/insights/internal_api/v1.0/esObject/lens/0FK13000000Kyk4GAC/json",
  "_uid": "0FK13000000Kyk4GAC",
  "edgemarts": {
    "emName": {
      "_type": "edgemart",
      "_uid": "0Fb13000000PAtQCAW"
    }
  }
}
