{
  "_container": {
    "_container": "0FK13000000Kyl7GAC",
    "_type": "container"
  },
  "lastRefresh": 1447785656,
  "_type": "dashboard",
  "_createdDateTime": 1448284759,
  "_lastModifiedBy": {
    "_type": "user",
    "name": "Andrew Beder",
    "_uid": "0051300000C0ZmhAAF",
    "profilePhotoUrl": "https://c.na19.content.force.com/profilephoto/005/T"
  },
  "description": "",
  "_createdBy": {
    "_type": "user",
    "name": "Andrew Beder",
    "_uid": "0051300000C0ZmhAAF",
    "profilePhotoUrl": "https://c.na19.content.force.com/profilephoto/005/T"
  },
  "assetPreviewAllow": true,
  "stateVersion": 1,
  "folder": {
    "_type": "folder",
    "name": "PRM Reporting",
    "_uid": "00l13000003VsFvAAK"
  },
  "_files": {
    "assetPreviewThumb": {
      "fileName": "assetPreviewThumb",
      "fileSize": 433,
      "lensId": "0FK13000000Kyl7GAC",
      "_type": "lensfile",
      "lastModified": 1448284760,
      "_url": "/insights/internal_api/v1.0/esObject/lens/0FK13000000Kyl7GAC/lensfile/0FJ13000000Kyl7GAC/data?lastModified=1448284760",
      "_uid": "0FJ13000000Kyl7GAC",
      "contentType": "image/png"
    }
  },
  "name": "RMD Landing Page",
  "_permissions": {
    "modify": true,
    "view": true
  },
  "lastModified": 1448284759,
  "assetSharingUrl": "https://na19.salesforce.com/analytics/wave/dashboard?assetId=0FK13000000Kyl7GAC&orgId=00D30000000Xw8g&loginHost=na19.salesforce.com&urlType=sharing",
  "state": {
    "widgets": {
      "cs_link_hurdles_rmd": {
        "pos": {
          "x": 400,
          "y": 160,
          "zIndex": 10
        },
        "type": "LinkWidget",
        "params": {
          "destination": "0FK13000000KykEGAS",
          "chartType": "hbar",
          "fontSize": 24,
          "text": "Hurdles",
          "destType": "dashboard"
        }
      },
      "cs_link_green_sheets_rmd": {
        "pos": {
          "x": 90,
          "y": 160,
          "zIndex": 10
        },
        "type": "LinkWidget",
        "params": {
          "destination": "0FK13000000KyjGGAS",
          "chartType": "hbar",
          "fontSize": 24,
          "text": "Green Sheets",
          "textColor": "rgb(0, 0, 0)",
          "destType": "dashboard"
        }
      },
      "cs_text_title": {
        "pos": {
          "x": 1120,
          "y": 10,
          "zIndex": 7
        },
        "type": "TextWidget",
        "params": {
          "fontSize": 18,
          "text": "Choose a Dashboard from the list below",
          "textColor": "rgb(52, 74, 95)"
        }
      },
      "cs_box_putnam_logo": {
        "pos": {
          "w": 240,
          "x": 0,
          "h": 70,
          "y": 0,
          "zIndex": 22
        },
        "type": "BoxWidget",
        "params": {
          "imgUrl": "015a00000036jI2",
          "backgroundColor": "rgba(0, 140, 201, 0)",
          "borderColor": "rgba(0, 0, 0, 0)"
        }
      },
      "cs_box_header_1": {
        "pos": {
          "w": 180,
          "x": 1120,
          "h": 1,
          "y": 10,
          "zIndex": 6
        },
        "type": "BoxWidget",
        "params": {
          "backgroundColor": "rgb(26, 127, 186)",
          "borderColor": "rgba(0, 0, 0, 0)"
        }
      },
      "cs_link_green_sheets_trending": {
        "pos": {
          "x": 90,
          "y": 230,
          "zIndex": 7
        },
        "type": "LinkWidget",
        "params": {
          "destination": "0FK13000000Kyk4GAC",
          "chartType": "hbar",
          "fontSize": 24,
          "text": "Green Sheets - Trending",
          "destType": "dashboard"
        }
      },
      "cs_link_ria_opp": {
        "pos": {
          "x": 640,
          "y": 160,
          "zIndex": 13
        },
        "type": "LinkWidget",
        "params": {
          "destination": "0FK13000000KykYGAS",
          "chartType": "hbar",
          "fontSize": 24,
          "text": "RIA Opportunities",
          "destType": "dashboard"
        }
      },
      "cs_link_touchpoints": {
        "pos": {
          "x": 640,
          "y": 230,
          "zIndex": 9
        },
        "type": "LinkWidget",
        "params": {
          "destination": "0FK13000000KylMGAS",
          "chartType": "hbar",
          "fontSize": 24,
          "text": "Touchpoints",
          "destType": "dashboard"
        }
      },
      "cs_header_landing": {
        "pos": {
          "x": 1120,
          "y": 10,
          "zIndex": 7
        },
        "type": "TextWidget",
        "params": {
          "fontSize": 24,
          "text": "PRM Reporting",
          "textColor": "rgb(255, 255, 255)"
        }
      },
      "cs_link_hurdles_firm": {
        "pos": {
          "x": 400,
          "y": 230,
          "zIndex": 12
        },
        "type": "LinkWidget",
        "params": {
          "destination": "0FK13000000KykTGAS",
          "chartType": "hbar",
          "fontSize": 24,
          "text": "Hurdles - Firm",
          "destType": "dashboard"
        }
      }
    },
    "layouts": {
      "default": {
        "page:0": [
          "cs_box_putnam_logo {colspan=6, hpad=-10, vpad=10} | row: {height=100}",
          "cs_box_header_1 {colspan=6, rowspan=3, hpad=-15, vpad=-5} | row: {height=10}",
          "cs_header_landing {colspan=6, hpad=0, vpad=0}",
          "row: {height=10}",
          "row: {height=10}",
          "cs_text_title {colspan=6, hpad=5, vpad=5} | row: {height=preferred}",
          "row: {height=10}",
          "cs_link_green_sheets_rmd {colspan=6, hpad=5, vpad=5} | row: {height=75}",
          "cs_link_green_sheets_trending {colspan=6, hpad=5, vpad=5} | row: {height=75}",
          "cs_link_hurdles_rmd {colspan=6, hpad=5, vpad=5} | row: {height=75}",
          "cs_link_hurdles_firm {colspan=6, hpad=5, vpad=5} | row: {height=75}",
          "cs_link_ria_opp {colspan=6, hpad=5, vpad=5} | row: {height=75}",
          "cs_link_touchpoints {colspan=6, hpad=5, vpad=5} | row: {height=75}",
          "row: {height=10}"
        ]
      }
    }
  },
  "_url": "/insights/internal_api/v1.0/esObject/lens/0FK13000000Kyl7GAC/json",
  "_uid": "0FK13000000Kyl7GAC",
  "edgemarts": {
    "emName": {
      "_type": "edgemart",
      "_uid": "0Fb13000000PAtQCAW"
    }
  }
}
