{
  "_container": {
    "_container": "0FK13000000KyllGAC",
    "_type": "container"
  },
  "lastRefresh": 1448476886,
  "_type": "dashboard",
  "_createdDateTime": 1448934810,
  "_lastModifiedBy": {
    "_type": "user",
    "name": "Divakar Santhosh",
    "_uid": "0051300000C0ZmwAAF",
    "profilePhotoUrl": "https://c.na19.content.force.com/profilephoto/005/T"
  },
  "description": "",
  "_createdBy": {
    "_type": "user",
    "name": "Divakar Santhosh",
    "_uid": "0051300000C0ZmwAAF",
    "profilePhotoUrl": "https://c.na19.content.force.com/profilephoto/005/T"
  },
  "assetPreviewAllow": true,
  "stateVersion": 1,
  "folder": {
    "_type": "folder",
    "name": "PRM Reporting",
    "_uid": "00l13000003VsFvAAK"
  },
  "_files": {
    "assetPreviewThumb": {
      "fileName": "assetPreviewThumb",
      "fileSize": 8721,
      "lensId": "0FK13000000KyllGAC",
      "_type": "lensfile",
      "lastModified": 1449004515,
      "_url": "/insights/internal_api/v1.0/esObject/lens/0FK13000000KyllGAC/lensfile/0FJ13000000KyllGAC/data?lastModified=1449004515",
      "_uid": "0FJ13000000KyllGAC",
      "contentType": "image/png"
    }
  },
  "name": "SMC Weekly Dashboard",
  "_permissions": {
    "modify": true,
    "view": true
  },
  "lastModified": 1449004514,
  "assetSharingUrl": "https://na19.salesforce.com/analytics/wave/dashboard?assetId=0FK13000000KyllGAC&orgId=00D30000000Xw8g&loginHost=na19.salesforce.com&urlType=sharing",
  "state": {
    "widgets": {
      "cs_box_putnam_logo": {
        "pos": {
          "w": 240,
          "x": 0,
          "h": 70,
          "y": 0,
          "zIndex": 22
        },
        "type": "BoxWidget",
        "params": {
          "imgUrl": "015a00000036jI2",
          "backgroundColor": "rgba(0, 140, 201, 0)",
          "borderColor": "rgba(0, 0, 0, 0)"
        }
      },
      "cs_box_s1c1": {
        "pos": {
          "w": 180,
          "x": 1120,
          "h": 1,
          "y": 10,
          "zIndex": 6
        },
        "type": "BoxWidget",
        "params": {
          "backgroundColor": "rgb(107, 169, 215)",
          "borderColor": "rgba(0, 0, 0, 0)"
        }
      },
      "cs_box_s1c2": {
        "pos": {
          "w": 180,
          "x": 1120,
          "h": 1,
          "y": 10,
          "zIndex": 6
        },
        "type": "BoxWidget",
        "params": {
          "backgroundColor": "rgb(107, 169, 215)",
          "borderColor": "rgba(0, 0, 0, 0)"
        }
      },
      "cs_box_s1c3": {
        "pos": {
          "w": 180,
          "x": 1120,
          "h": 1,
          "y": 10,
          "zIndex": 6
        },
        "type": "BoxWidget",
        "params": {
          "backgroundColor": "rgb(107, 169, 215)",
          "borderColor": "rgba(0, 0, 0, 0)"
        }
      },
      "cs_box_s1c4": {
        "pos": {
          "w": 180,
          "x": 1120,
          "h": 1,
          "y": 10,
          "zIndex": 0
        },
        "type": "BoxWidget",
        "params": {
          "backgroundColor": "rgb(107, 169, 215)",
          "borderColor": "rgba(0, 0, 0, 0)"
        }
      },
      "cs_box_s1c5": {
        "pos": {
          "w": 180,
          "x": 1120,
          "h": 1,
          "y": 10,
          "zIndex": 6
        },
        "type": "BoxWidget",
        "params": {
          "backgroundColor": "rgb(107, 169, 215)",
          "borderColor": "rgba(0, 0, 0, 0)"
        }
      },
      "cs_box_s1c6": {
        "pos": {
          "w": 180,
          "x": 1120,
          "h": 1,
          "y": 10,
          "zIndex": 0
        },
        "type": "BoxWidget",
        "params": {
          "backgroundColor": "rgb(107, 169, 215)",
          "borderColor": "rgba(0, 0, 0, 0)"
        }
      },
      "cs_header_smc_activities": {
        "pos": {
          "x": 1120,
          "y": 10,
          "zIndex": 7
        },
        "type": "TextWidget",
        "params": {
          "fontSize": 24,
          "text": "SMC Activities",
          "textColor": "rgb(255, 255, 255)"
        }
      },
      "cs_box_header_1": {
        "pos": {
          "w": 180,
          "x": 1120,
          "h": 1,
          "y": 10,
          "zIndex": 6
        },
        "type": "BoxWidget",
        "params": {
          "backgroundColor": "rgb(26, 127, 186)",
          "borderColor": "rgba(0, 0, 0, 0)"
        }
      },
      "box_1": {
        "pos": {
          "w": 260,
          "x": 10,
          "h": 110,
          "y": 0,
          "zIndex": 0
        },
        "type": "BoxWidget",
        "params": {
          "imgUrl": "015a00000036jI2",
          "backgroundColor": "rgba(0, 140, 201, 0.02)",
          "borderColor": "rgba(0, 0, 0, 0.01)"
        }
      },
      "valuestable_1": {
        "pos": {
          "w": 900,
          "x": 10,
          "h": 300,
          "y": 1440,
          "zIndex": 7
        },
        "type": "ValuesTable",
        "params": {
          "selectMode": "single",
          "step": "lens_13"
        }
      },
      "text_1": {
        "pos": {
          "x": 30,
          "y": 150,
          "zIndex": 8
        },
        "type": "TextWidget",
        "params": {
          "text": "Top RMA by Daily RMS OB Calls"
        }
      },
      "dimfilter_3": {
        "pos": {
          "w": 130,
          "x": 610,
          "h": 50,
          "y": 20,
          "zIndex": 100002
        },
        "type": "ListSelector",
        "params": {
          "expanded": false,
          "step": "Week_Ending_Year_Week_Ending_Month_Week_Ending_Day_10",
          "title": "Week"
        }
      },
      "dimfilter_4": {
        "pos": {
          "w": 130,
          "x": 330,
          "h": 50,
          "y": 20,
          "zIndex": 100003
        },
        "type": "ListSelector",
        "params": {
          "expanded": false,
          "selectMode": "multi",
          "step": "Region_9"
        }
      },
      "dimfilter_6": {
        "pos": {
          "w": 200,
          "x": 620,
          "h": 50,
          "y": 930,
          "zIndex": 100003
        },
        "type": "ListSelector",
        "params": {
          "expanded": false,
          "selectMode": "single_required",
          "measureField": "",
          "step": "cs_step_static_measure",
          "title": ""
        }
      },
      "dimfilter_1": {
        "pos": {
          "w": 130,
          "x": 470,
          "h": 50,
          "y": 20,
          "zIndex": 100000
        },
        "type": "ListSelector",
        "params": {
          "expanded": false,
          "selectMode": "multi",
          "step": "RMA_8"
        }
      },
      "chart_6": {
        "pos": {
          "w": 500,
          "x": 20,
          "h": 300,
          "y": 1030,
          "zIndex": 5
        },
        "type": "ChartWidget",
        "params": {
          "chartType": "hbar",
          "step": "RMA_7"
        }
      },
      "text_3": {
        "pos": {
          "x": 20,
          "y": 570,
          "zIndex": 10
        },
        "type": "TextWidget",
        "params": {
          "text": "Top RMA by Net Calls(RMS OB +IB Calls)"
        }
      },
      "chart_5": {
        "pos": {
          "w": 500,
          "x": 10,
          "h": 300,
          "y": 640,
          "zIndex": 4
        },
        "type": "ChartWidget",
        "params": {
          "chartType": "hbar",
          "step": "RMA_6"
        }
      },
      "text_2": {
        "pos": {
          "x": 550,
          "y": 140,
          "zIndex": 9
        },
        "type": "TextWidget",
        "params": {
          "text": "Top RMA by Daily %"
        }
      },
      "text_5": {
        "pos": {
          "x": 50,
          "y": 980,
          "zIndex": 12
        },
        "type": "TextWidget",
        "params": {
          "text": "Top RMA by Daily Productivity  Score"
        }
      },
      "text_4": {
        "pos": {
          "x": 570,
          "y": 570,
          "zIndex": 11
        },
        "type": "TextWidget",
        "params": {
          "text": "Top RMA by % Spoke to Rep"
        }
      },
      "chart_2": {
        "pos": {
          "w": 500,
          "x": 520,
          "h": 300,
          "y": 200,
          "zIndex": 1
        },
        "type": "ChartWidget",
        "params": {
          "chartType": "hbar",
          "step": "RMA_3"
        }
      },
      "text_7": {
        "pos": {
          "x": 80,
          "y": 1380,
          "zIndex": 14
        },
        "type": "TextWidget",
        "params": {
          "text": "RMA Metric Details"
        }
      },
      "chart_1": {
        "pos": {
          "w": 500,
          "x": 10,
          "h": 300,
          "y": 200,
          "zIndex": 0
        },
        "type": "ChartWidget",
        "params": {
          "chartType": "hbar",
          "step": "RMA_1"
        }
      },
      "text_6": {
        "pos": {
          "x": 520,
          "y": 980,
          "zIndex": 13
        },
        "type": "TextWidget",
        "params": {
          "text": "Average Daily Product Score Trending"
        }
      },
      "chart_4": {
        "pos": {
          "w": 500,
          "x": 510,
          "h": 300,
          "y": 620,
          "zIndex": 3
        },
        "type": "ChartWidget",
        "params": {
          "chartType": "hbar",
          "step": "RMA_5"
        }
      },
      "chart_10": {
        "pos": {
          "w": 500,
          "x": 530,
          "h": 300,
          "y": 1030,
          "zIndex": 15
        },
        "type": "ChartWidget",
        "params": {
          "chartType": "time",
          "step": "Week_Ending_Year_Week_Ending_Month_Week_Ending_Day_14"
        }
      }
    },
    "steps": {
      "Week_Ending_Year_Week_Ending_Month_Week_Ending_Day_18": {
        "selectMode": "single",
        "query": {
          "measures": [
            [
              "avg",
              "Daily"
            ]
          ],
          "groups": [
            [
              "Week_Ending_Year",
              "Week_Ending_Month",
              "Week_Ending_Day"
            ]
          ],
          "filters": [
            [
              "Week_Ending",
              [
                [
                  [
                    "year",
                    0
                  ],
                  [
                    "year",
                    0
                  ]
                ]
              ],
              ">=<="
            ]
          ]
        },
        "extra": {
          "chartType": "time"
        },
        "em": "DS_SMC_Weekly",
        "isGlobal": false,
        "start": null,
        "useGlobal": true,
        "type": "aggregate",
        "isFacet": true
      },
      "Week_Ending_Year_Week_Ending_Month_Week_Ending_Day_19": {
        "selectMode": "single",
        "query": {
          "measures": [
            [
              "avg",
              "Spoke_to_Rep"
            ]
          ],
          "groups": [
            [
              "Week_Ending_Year",
              "Week_Ending_Month",
              "Week_Ending_Day"
            ]
          ],
          "filters": [
            [
              "Week_Ending",
              [
                [
                  [
                    "year",
                    0
                  ],
                  [
                    "year",
                    0
                  ]
                ]
              ],
              ">=<="
            ]
          ]
        },
        "extra": {
          "chartType": "time"
        },
        "em": "DS_SMC_Weekly",
        "isGlobal": false,
        "start": null,
        "useGlobal": true,
        "type": "aggregate",
        "isFacet": true
      },
      "Week_Ending_Year_Week_Ending_Month_Week_Ending_Day_10": {
        "selectMode": "single",
        "query": {
          "measures": [
            [
              "count",
              "*"
            ]
          ],
          "groups": [
            [
              "Week_Ending_Year",
              "Week_Ending_Month",
              "Week_Ending_Day"
            ]
          ],
          "order": [
            [
              -1,
              {
                "ascending": false
              }
            ]
          ]
        },
        "extra": {
          "chartType": "hbar"
        },
        "em": "DS_SMC_Weekly",
        "isGlobal": false,
        "start": null,
        "useGlobal": true,
        "type": "aggregate",
        "isFacet": true
      },
      "Week_Ending_Year_Week_Ending_Month_Week_Ending_Day_14": {
        "selectMode": "single",
        "query": {
          "measures": [
            [
              "sum",
              "{{selection(cs_step_static_measure)}}"
            ]
          ],
          "groups": [
            [
              "Week_Ending_Year",
              "Week_Ending_Month",
              "Week_Ending_Day"
            ]
          ],
          "filters": [
            [
              "Week_Ending",
              [
                [
                  [
                    "year",
                    0
                  ],
                  [
                    "year",
                    0
                  ]
                ]
              ],
              ">=<="
            ]
          ]
        },
        "extra": {
          "chartType": "time"
        },
        "em": "DS_SMC_Weekly",
        "isGlobal": false,
        "start": null,
        "useGlobal": true,
        "type": "aggregate",
        "isFacet": true
      },
      "Week_Ending_Year_Week_Ending_Month_Week_Ending_Day_15": {
        "selectMode": "single",
        "query": {
          "measures": [
            [
              "sum",
              "Avg_Daily_RMS_OB_Calls"
            ]
          ],
          "groups": [
            [
              "Week_Ending_Year",
              "Week_Ending_Month",
              "Week_Ending_Day"
            ]
          ],
          "filters": [
            [
              "Week_Ending",
              [
                [
                  [
                    "year",
                    0
                  ],
                  [
                    "year",
                    0
                  ]
                ]
              ],
              ">=<="
            ]
          ]
        },
        "extra": {
          "chartType": "time"
        },
        "em": "DS_SMC_Weekly",
        "isGlobal": false,
        "start": null,
        "useGlobal": true,
        "type": "aggregate",
        "isFacet": true
      },
      "Week_Ending_Year_Week_Ending_Month_Week_Ending_Day_16": {
        "selectMode": "single",
        "query": {
          "measures": [
            [
              "sum",
              "Avg_Daily_RMS_OB_Calls"
            ]
          ],
          "groups": [
            [
              "Week_Ending_Year",
              "Week_Ending_Month",
              "Week_Ending_Day"
            ]
          ],
          "filters": [
            [
              "Week_Ending",
              [
                [
                  [
                    "year",
                    0
                  ],
                  [
                    "year",
                    0
                  ]
                ]
              ],
              ">=<="
            ]
          ]
        },
        "extra": {
          "chartType": "time"
        },
        "em": "DS_SMC_Weekly",
        "isGlobal": false,
        "start": null,
        "useGlobal": true,
        "type": "aggregate",
        "isFacet": true
      },
      "Week_Ending_Year_Week_Ending_Month_Week_Ending_Day_17": {
        "selectMode": "single",
        "query": {
          "measures": [
            [
              "sum",
              "Net_Calls_RMS_OB_IB_Calls"
            ]
          ],
          "groups": [
            [
              "Week_Ending_Year",
              "Week_Ending_Month",
              "Week_Ending_Day"
            ]
          ],
          "filters": [
            [
              "Week_Ending",
              [
                [
                  [
                    "year",
                    0
                  ],
                  [
                    "year",
                    0
                  ]
                ]
              ],
              ">=<="
            ]
          ]
        },
        "extra": {
          "chartType": "time"
        },
        "em": "DS_SMC_Weekly",
        "isGlobal": false,
        "start": null,
        "useGlobal": true,
        "type": "aggregate",
        "isFacet": true
      },
      "cs_step_static_measure": {
        "selectMode": "single_required",
        "values": [
          {
            "display": "Avg_Daily_RMS_OB_Calls",
            "value": [
              "Avg_Daily_RMS_OB_Calls"
            ]
          },
          {
            "display": "Daily",
            "value": [
              "Daily"
            ]
          },
          {
            "display": "Net_Calls_RMS_OB_IB_Calls",
            "value": [
              "Net_Calls_RMS_OB_IB_Calls"
            ]
          },
          {
            "display": "Spoke_to_Rep",
            "value": [
              "Spoke_to_Rep"
            ]
          },
          {
            "display": "Avg_Daily_Productivity_Score",
            "value": [
              "Avg_Daily_Productivity_Score"
            ]
          }
        ],
        "isGlobal": false,
        "start": [
          [
            "Avg_Daily_Productivity_Score"
          ]
        ],
        "useGlobal": false,
        "type": "static",
        "isFacet": false
      },
      "RMA_8": {
        "selectMode": "multi",
        "query": {
          "measures": [
            [
              "count",
              "*"
            ]
          ],
          "groups": [
            "RMA"
          ],
          "order": [
            [
              -1,
              {
                "ascending": false
              }
            ]
          ]
        },
        "extra": {
          "chartType": "hbar"
        },
        "em": "DS_SMC_Weekly",
        "isGlobal": false,
        "start": [],
        "useGlobal": true,
        "type": "aggregate",
        "isFacet": true
      },
      "RMA_7": {
        "selectMode": "single",
        "query": {
          "measures": [
            [
              "avg",
              "Avg_Daily_Productivity_Score"
            ]
          ],
          "groups": [
            "RMA"
          ],
          "order": [
            [
              -1,
              {
                "ascending": false
              }
            ]
          ]
        },
        "extra": {
          "chartType": "hbar"
        },
        "em": "DS_SMC_Weekly",
        "isGlobal": false,
        "start": null,
        "useGlobal": true,
        "type": "aggregate",
        "isFacet": true
      },
      "RMA_6": {
        "selectMode": "single",
        "query": {
          "measures": [
            [
              "sum",
              "Net_Calls_RMS_OB_IB_Calls"
            ]
          ],
          "groups": [
            "RMA"
          ],
          "order": [
            [
              -1,
              {
                "ascending": false
              }
            ]
          ]
        },
        "extra": {
          "chartType": "hbar"
        },
        "em": "DS_SMC_Weekly",
        "isGlobal": false,
        "start": null,
        "useGlobal": true,
        "type": "aggregate",
        "isFacet": true
      },
      "Region_9": {
        "selectMode": "multi",
        "query": {
          "measures": [
            [
              "count",
              "*"
            ]
          ],
          "groups": [
            "Region"
          ],
          "order": [
            [
              -1,
              {
                "ascending": false
              }
            ]
          ]
        },
        "extra": {
          "chartType": "hbar"
        },
        "em": "DS_SMC_Weekly",
        "isGlobal": false,
        "start": [],
        "useGlobal": true,
        "type": "aggregate",
        "isFacet": true
      },
      "RMA_5": {
        "selectMode": "single",
        "query": {
          "measures": [
            [
              "avg",
              "Spoke_to_Rep"
            ]
          ],
          "groups": [
            "RMA"
          ],
          "order": [
            [
              -1,
              {
                "ascending": false
              }
            ]
          ]
        },
        "extra": {
          "chartType": "hbar"
        },
        "em": "DS_SMC_Weekly",
        "isGlobal": false,
        "start": null,
        "useGlobal": true,
        "type": "aggregate",
        "isFacet": true
      },
      "RMA_4": {
        "selectMode": "single",
        "query": {
          "measures": [
            [
              "avg",
              "Net_Calls_RMS_OB_IB_Calls"
            ]
          ],
          "groups": [
            "RMA"
          ],
          "order": [
            [
              -1,
              {
                "ascending": false
              }
            ]
          ]
        },
        "extra": {
          "chartType": "hbar"
        },
        "em": "DS_SMC_Weekly",
        "isGlobal": false,
        "start": null,
        "useGlobal": true,
        "type": "aggregate",
        "isFacet": true
      },
      "RMA_3": {
        "selectMode": "single",
        "query": {
          "measures": [
            [
              "avg",
              "Daily"
            ]
          ],
          "groups": [
            "RMA"
          ],
          "order": [
            [
              -1,
              {
                "ascending": false
              }
            ]
          ]
        },
        "extra": {
          "chartType": "hbar"
        },
        "em": "DS_SMC_Weekly",
        "isGlobal": false,
        "start": null,
        "useGlobal": true,
        "type": "aggregate",
        "isFacet": true
      },
      "lens_13": {
        "selectMode": "single",
        "query": {
          "values": [
            "RMA",
            "Avg_IB_Talk_Time",
            "Avg_Net_TT_Day",
            "Week_Ending_Quarter",
            "Week_Ending",
            "Attendance",
            "Phone_TP_Net_Calls",
            "Avg_Daily_Spoke_to_Rep",
            "Total_IB_Calls",
            "RMS_OB_Calls"
          ]
        },
        "extra": {
          "chartType": "valuestable"
        },
        "em": "DS_SMC_Weekly",
        "isGlobal": false,
        "start": null,
        "useGlobal": true,
        "type": "grain",
        "isFacet": true
      },
      "RMA_1": {
        "selectMode": "single",
        "query": {
          "measures": [
            [
              "sum",
              "Avg_Daily_RMS_OB_Calls"
            ]
          ],
          "groups": [
            "RMA"
          ],
          "order": [
            [
              -1,
              {
                "ascending": false
              }
            ]
          ]
        },
        "extra": {
          "chartType": "hbar"
        },
        "em": "DS_SMC_Weekly",
        "isGlobal": false,
        "start": null,
        "useGlobal": true,
        "type": "aggregate",
        "isFacet": true
      }
    },
    "layouts": {
      "default": {
        "page:0": [
          "cs_box_putnam_logo {colspan=6, hpad=-10, vpad=10} | row: {height=100}",
          "cs_box_header_1 {colspan=6, rowspan=3, hpad=-15, vpad=-5} | row: {height=10}",
          "cs_header_smc_activities {colspan=6, hpad=0, vpad=0}",
          "row: {height=10}",
          "cs_filter_region {colspan=2, hpad=5, vpad=5} | cs_filter_territory {colspan=4, hpad=5, vpad=5} | row: {height=65}",
          "cs_filter_week {colspan=3, hpad=5, vpad=5} | cs_filter_product {colspan=3, hpad=5, vpad=5} | row: {height=65}",
        ]
      }
    }
  },
  "_url": "/insights/internal_api/v1.0/esObject/lens/0FK13000000KyllGAC/json",
  "_uid": "0FK13000000KyllGAC",
  "edgemarts": {
    "emName": {
      "_type": "edgemart",
      "_uid": "0Fb13000000PAvMCAW"
    }
  }
}
