{
  "_container": {
    "_container": "0FK13000000KyksGAC",
    "_type": "container"
  },
  "lastRefresh": 1447894652,
  "_type": "dashboard",
  "_createdDateTime": 1448036892,
  "_lastModifiedBy": {
    "_type": "user",
    "name": "Andrew Beder",
    "_uid": "0051300000C0ZmhAAF",
    "profilePhotoUrl": "https://c.na19.content.force.com/profilephoto/005/T"
  },
  "description": "",
  "_createdBy": {
    "_type": "user",
    "name": "Andrew Beder",
    "_uid": "0051300000C0ZmhAAF",
    "profilePhotoUrl": "https://c.na19.content.force.com/profilephoto/005/T"
  },
  "assetPreviewAllow": true,
  "stateVersion": 1,
  "folder": {
    "_type": "folder",
    "name": "My Private App",
    "_uid": "0051300000C0ZmhAAF"
  },
  "_files": {
    "assetPreviewThumb": {
      "fileName": "assetPreviewThumb",
      "fileSize": 5773,
      "lensId": "0FK13000000KyksGAC",
      "_type": "lensfile",
      "lastModified": 1448036894,
      "_url": "/insights/internal_api/v1.0/esObject/lens/0FK13000000KyksGAC/lensfile/0FJ13000000KyksGAC/data?lastModified=1448036894",
      "_uid": "0FJ13000000KyksGAC",
      "contentType": "image/png"
    }
  },
  "name": "Trending Group Bys",
  "_permissions": {
    "modify": true,
    "view": true
  },
  "lastModified": 1448036892,
  "assetSharingUrl": "https://na19.salesforce.com/analytics/wave/dashboard?assetId=0FK13000000KyksGAC&orgId=00D30000000Xw8g&loginHost=na19.salesforce.com&urlType=sharing",
  "state": {
    "widgets": {
      "buttongroup_1": {
        "pos": {
          "w": 240,
          "x": 630,
          "y": 540,
          "zIndex": 11
        },
        "type": "PillBox",
        "params": {
          "selectMode": "single_required",
          "measureField": "",
          "step": "cs_step_static_measure"
        }
      },
      "chart_1": {
        "pos": {
          "w": 500,
          "x": 60,
          "h": 300,
          "y": 30,
          "zIndex": 0
        },
        "type": "ChartWidget",
        "params": {
          "chartType": "time",
          "step": "activitydate_Year_activitydate_Month_activitydate_Day_1"
        }
      }
    },
    "steps": {
      "activitydate_Year_activitydate_Week_2": {
        "selectMode": "single",
        "query": {
          "measures": [
            [
              "count",
              "*"
            ]
          ],
          "groups": [
            [
              "activitydate_Year",
              "activitydate_Week"
            ]
          ],
          "filters": [
            [
              "activitydate",
              [
                [
                  [
                    "year",
                    0
                  ],
                  [
                    "year",
                    0
                  ]
                ]
              ],
              ">=<="
            ]
          ]
        },
        "extra": {
          "chartType": "time"
        },
        "em": "DS_Activities",
        "isGlobal": false,
        "start": null,
        "useGlobal": true,
        "type": "aggregate",
        "isFacet": true
      },
      "cs_step_static_measure": {
        "selectMode": "single_required",
        "values": [
          {
            "display": "Days",
            "value": [
              [
                "activitydate_Year",
                "activitydate_Month",
                "activitydate_Day"
              ]
            ]
          },
          {
            "display": "Week",
            "value": [
              [
                "activitydate_Year",
                "activitydate_Week"
              ]
            ]
          },
          {
            "display": "Month",
            "value": [
              [
                "activitydate_Year",
                "activitydate_Month"
              ]
            ]
          },
          {
            "display": "Quarter",
            "value": [
              [
                "activitydate_Year",
                "activitydate_Quarter"
              ]
            ]
          }
        ],
        "isGlobal": false,
        "start": [
          [
            [
              "activitydate_Year",
              "activitydate_Month",
              "activitydate_Day"
            ]
          ]
        ],
        "useGlobal": false,
        "type": "static",
        "isFacet": false
      },
      "activitydate_Year_activitydate_Month_activitydate_Day_1": {
        "selectMode": "single",
        "query": {
          "measures": [
            [
              "count",
              "*"
            ]
          ],
          "groups": "{{ selection(cs_step_static_measure) }}",
          "filters": [
            [
              "activitydate",
              [
                [
                  [
                    "year",
                    0
                  ],
                  [
                    "year",
                    0
                  ]
                ]
              ],
              ">=<="
            ]
          ]
        },
        "extra": {
          "chartType": "time"
        },
        "em": "DS_Activities",
        "isGlobal": false,
        "start": null,
        "useGlobal": true,
        "type": "aggregate",
        "isFacet": false
      },
      "activitydate_Year_activitydate_Quarter_4": {
        "selectMode": "single",
        "query": {
          "measures": [
            [
              "count",
              "*"
            ]
          ],
          "groups": [
            [
              "activitydate_Year",
              "activitydate_Quarter"
            ]
          ],
          "filters": [
            [
              "activitydate",
              [
                [
                  [
                    "year",
                    0
                  ],
                  [
                    "year",
                    0
                  ]
                ]
              ],
              ">=<="
            ]
          ]
        },
        "extra": {
          "chartType": "time"
        },
        "em": "DS_Activities",
        "isGlobal": false,
        "start": null,
        "useGlobal": true,
        "type": "aggregate",
        "isFacet": true
      },
      "activitydate_Year_activitydate_Month_3": {
        "selectMode": "single",
        "query": {
          "measures": [
            [
              "count",
              "*"
            ]
          ],
          "groups": [
            [
              "activitydate_Year",
              "activitydate_Month"
            ]
          ],
          "filters": [
            [
              "activitydate",
              [
                [
                  [
                    "year",
                    0
                  ],
                  [
                    "year",
                    0
                  ]
                ]
              ],
              ">=<="
            ]
          ]
        },
        "extra": {
          "chartType": "time"
        },
        "em": "DS_Activities",
        "isGlobal": false,
        "start": null,
        "useGlobal": true,
        "type": "aggregate",
        "isFacet": true
      }
    }
  },
  "_url": "/insights/internal_api/v1.0/esObject/lens/0FK13000000KyksGAC/json",
  "_uid": "0FK13000000KyksGAC",
  "edgemarts": {
    "emName": {
      "_type": "edgemart",
      "_uid": "0Fb13000000PAunCAG"
    }
  }
}
