{
  "_container": {
    "_container": "0FK13000000KykJGAS",
    "_type": "container"
  },
  "lastRefresh": 1449148212,
  "_type": "dashboard",
  "_createdDateTime": 1447852048,
  "_lastModifiedBy": {
    "_type": "user",
    "name": "Andrew Beder",
    "_uid": "0051300000C0ZmhAAF",
    "profilePhotoUrl": "https://c.na19.content.force.com/profilephoto/005/T"
  },
  "description": "",
  "_createdBy": {
    "_type": "user",
    "name": "Andrew Beder",
    "_uid": "0051300000C0ZmhAAF",
    "profilePhotoUrl": "https://c.na19.content.force.com/profilephoto/005/T"
  },
  "assetPreviewAllow": true,
  "stateVersion": 1,
  "folder": {
    "_type": "folder",
    "name": "My Private App",
    "_uid": "0051300000C0ZmhAAF"
  },
  "_files": {
    "assetPreviewThumb": {
      "fileName": "assetPreviewThumb",
      "fileSize": 7614,
      "lensId": "0FK13000000KykJGAS",
      "_type": "lensfile",
      "lastModified": 1448278119,
      "_url": "/insights/internal_api/v1.0/esObject/lens/0FK13000000KykJGAS/lensfile/0FJ13000000KykJGAS/data?lastModified=1448278119",
      "_uid": "0FJ13000000KykJGAS",
      "contentType": "image/png"
    }
  },
  "name": "WIP AB Hurdles - Firm View",
  "_permissions": {
    "modify": true,
    "view": true
  },
  "lastModified": 1448981508,
  "assetSharingUrl": "https://na19.salesforce.com/analytics/wave/dashboard?assetId=0FK13000000KykJGAS&orgId=00D30000000Xw8g&loginHost=na19.salesforce.com&urlType=sharing",
  "state": {
    "widgets": {
      "box_9": {
        "pos": {
          "w": 210,
          "x": 1110,
          "h": 60,
          "y": 10,
          "zIndex": 26
        },
        "type": "BoxWidget",
        "params": {
          "backgroundColor": "rgb(255, 255, 255)",
          "borderColor": "rgba(0, 0, 0, 0)"
        }
      },
      "cs_box_bar1": {
        "pos": {
          "w": 180,
          "x": 1120,
          "h": 1,
          "y": 10,
          "zIndex": 0
        },
        "type": "BoxWidget",
        "params": {
          "backgroundColor": "rgb(221, 221, 221)",
          "borderColor": "rgba(0, 76, 124, 0.5)"
        }
      },
      "cs_box_bar2": {
        "pos": {
          "w": 180,
          "x": 1120,
          "h": 1,
          "y": 10,
          "zIndex": 0
        },
        "type": "BoxWidget",
        "params": {
          "backgroundColor": "rgb(128, 128, 128)",
          "borderColor": "rgba(0, 0, 0, 0)"
        }
      },
      "cs_box_bar3": {
        "pos": {
          "w": 180,
          "x": 1120,
          "h": 1,
          "y": 10,
          "zIndex": 0
        },
        "type": "BoxWidget",
        "params": {
          "backgroundColor": "rgb(107, 169, 215)",
          "borderColor": "rgba(0, 0, 0, 0)"
        }
      },
      "cs_box_bar_1": {
        "pos": {
          "w": 180,
          "x": 1120,
          "h": 1,
          "y": 10,
          "zIndex": 0
        },
        "type": "BoxWidget",
        "params": {
          "backgroundColor": "rgb(107, 169, 215)",
          "borderColor": "rgba(0, 0, 0, 0)"
        }
      },
      "cs_box_bar_2": {
        "pos": {
          "w": 180,
          "x": 1120,
          "h": 1,
          "y": 10,
          "zIndex": 0
        },
        "type": "BoxWidget",
        "params": {
          "backgroundColor": "rgb(218, 231, 240)",
          "borderColor": "rgba(107, 169, 215, 0.5)"
        }
      },
      "cs_box_bar_3": {
        "pos": {
          "w": 180,
          "x": 1120,
          "h": 1,
          "y": 10,
          "zIndex": 0
        },
        "type": "BoxWidget",
        "params": {
          "backgroundColor": "rgb(107, 169, 215)",
          "borderColor": "rgba(0, 0, 0, 0)"
        }
      },
      "cs_box_header_1": {
        "pos": {
          "w": 180,
          "x": 1120,
          "h": 1,
          "y": 10,
          "zIndex": 6
        },
        "type": "BoxWidget",
        "params": {
          "backgroundColor": "rgb(26, 127, 186)",
          "borderColor": "rgba(0, 0, 0, 0)"
        }
      },
      "cs_box_legend_100_1": {
        "pos": {
          "w": 180,
          "x": 1120,
          "h": 1,
          "y": 10,
          "zIndex": 0
        },
        "type": "BoxWidget",
        "params": {
          "backgroundColor": "rgb(82, 183, 216)",
          "borderColor": "rgba(0, 0, 0, 0)"
        }
      },
      "cs_box_legend_100_2": {
        "pos": {
          "w": 180,
          "x": 1120,
          "h": 1,
          "y": 10,
          "zIndex": 0
        },
        "type": "BoxWidget",
        "params": {
          "backgroundColor": "rgb(82, 183, 216)",
          "borderColor": "rgba(0, 0, 0, 0)"
        }
      },
      "cs_box_legend_100_3": {
        "pos": {
          "w": 180,
          "x": 1120,
          "h": 1,
          "y": 10,
          "zIndex": 0
        },
        "type": "BoxWidget",
        "params": {
          "backgroundColor": "rgb(82, 183, 216)",
          "borderColor": "rgba(0, 0, 0, 0)"
        }
      },
      "cs_box_legend_10_1": {
        "pos": {
          "w": 180,
          "x": 1120,
          "h": 1,
          "y": 10,
          "zIndex": 0
        },
        "type": "BoxWidget",
        "params": {
          "backgroundColor": "rgb(225, 96, 50)",
          "borderColor": "rgba(0, 0, 0, 0)"
        }
      },
      "cs_box_legend_10_2": {
        "pos": {
          "w": 180,
          "x": 1120,
          "h": 1,
          "y": 10,
          "zIndex": 0
        },
        "type": "BoxWidget",
        "params": {
          "backgroundColor": "rgb(225, 96, 50)",
          "borderColor": "rgba(0, 0, 0, 0)"
        }
      },
      "cs_box_legend_10_3": {
        "pos": {
          "w": 180,
          "x": 1120,
          "h": 1,
          "y": 10,
          "zIndex": 0
        },
        "type": "BoxWidget",
        "params": {
          "backgroundColor": "rgb(225, 96, 50)",
          "borderColor": "rgba(0, 0, 0, 0)"
        }
      },
      "cs_box_putnam_logo": {
        "pos": {
          "w": 240,
          "x": 0,
          "h": 70,
          "y": 0,
          "zIndex": 22
        },
        "type": "BoxWidget",
        "params": {
          "imgUrl": "015a00000036jI2",
          "backgroundColor": "rgba(0, 140, 201, 0)",
          "borderColor": "rgba(0, 0, 0, 0)"
        }
      },
      "cs_box_s1c1": {
        "pos": {
          "w": 180,
          "x": 1120,
          "h": 1,
          "y": 10,
          "zIndex": 6
        },
        "type": "BoxWidget",
        "params": {
          "backgroundColor": "rgb(107, 169, 215)",
          "borderColor": "rgba(0, 0, 0, 0)"
        }
      },
      "cs_box_s1c2": {
        "pos": {
          "w": 180,
          "x": 1120,
          "h": 1,
          "y": 10,
          "zIndex": 6
        },
        "type": "BoxWidget",
        "params": {
          "backgroundColor": "rgb(107, 169, 215)",
          "borderColor": "rgba(0, 0, 0, 0)"
        }
      },
      "cs_box_s1c3": {
        "pos": {
          "w": 180,
          "x": 1120,
          "h": 1,
          "y": 10,
          "zIndex": 6
        },
        "type": "BoxWidget",
        "params": {
          "backgroundColor": "rgb(107, 169, 215)",
          "borderColor": "rgba(0, 0, 0, 0)"
        }
      },
      "cs_box_s1c4": {
        "pos": {
          "w": 180,
          "x": 1120,
          "h": 1,
          "y": 10,
          "zIndex": 0
        },
        "type": "BoxWidget",
        "params": {
          "backgroundColor": "rgb(107, 169, 215)",
          "borderColor": "rgba(0, 0, 0, 0)"
        }
      },
      "cs_chart_channel": {
        "pos": {
          "w": 640,
          "x": 40,
          "h": 230,
          "y": 260,
          "zIndex": 0
        },
        "type": "ChartWidget",
        "params": {
          "legend": true,
          "chartType": "stackhbar",
          "step": "cs_step_channel"
        }
      },
      "cs_chart_firm": {
        "pos": {
          "w": 640,
          "x": 40,
          "h": 300,
          "y": 480,
          "zIndex": 1
        },
        "type": "ChartWidget",
        "params": {
          "legend": true,
          "chartType": "stackhbar",
          "step": "cs_step_firm"
        }
      },
      "cs_chart_trending": {
        "pos": {
          "w": 740,
          "x": 720,
          "h": 260,
          "y": 80,
          "zIndex": 2
        },
        "type": "ChartWidget",
        "params": {
          "legend": true,
          "chartType": "time",
          "step": "cs_step_week_counts"
        }
      },
      "cs_filter_channel": {
        "pos": {
          "w": 150,
          "x": 260,
          "h": 50,
          "y": 10,
          "zIndex": 100004
        },
        "type": "ListSelector",
        "params": {
          "expanded": false,
          "step": "cs_step_channel_name",
          "title": "Channel"
        }
      },
      "cs_filter_firm": {
        "pos": {
          "w": 250,
          "x": 430,
          "h": 50,
          "y": 10,
          "zIndex": 100005
        },
        "type": "ListSelector",
        "params": {
          "expanded": false,
          "step": "cs_step_firm_name",
          "title": "Firm Name"
        }
      },
      "cs_filter_week": {
        "pos": {
          "w": 180,
          "x": 330,
          "h": 50,
          "y": 80,
          "zIndex": 100003
        },
        "type": "ListSelector",
        "params": {
          "expanded": false,
          "step": "cs_step_week_text"
        }
      },
      "cs_header_hurdles": {
        "pos": {
          "x": 1120,
          "y": 10,
          "zIndex": 7
        },
        "type": "TextWidget",
        "params": {
          "fontSize": 24,
          "text": "Hurdles - Firm View",
          "textColor": "rgb(255, 255, 255)"
        }
      },
      "cs_number_100k_yoy": {
        "pos": {
          "w": 130,
          "x": 170,
          "y": 90,
          "zIndex": 18
        },
        "type": "NumberWidget",
        "params": {
          "textAlignment": "center",
          "measureField": "avg_100k_yoy_pct",
          "step": "cs_step_hurdles_yoy",
          "fontSize": 24,
          "title": "",
          "textColor": "rgb(52, 74, 95)"
        }
      },
      "cs_number_10k_yoy": {
        "pos": {
          "w": 130,
          "x": 20,
          "y": 90,
          "zIndex": 17
        },
        "type": "NumberWidget",
        "params": {
          "textAlignment": "center",
          "measureField": "avg_10k_yoy_pct",
          "step": "cs_step_hurdles_yoy",
          "fontSize": 24,
          "title": "",
          "textColor": "rgb(52, 74, 95)"
        }
      },
      "cs_table_hurdle_detail": {
        "pos": {
          "w": 740,
          "x": 720,
          "h": 300,
          "y": 380,
          "zIndex": 5
        },
        "type": "ValuesTable",
        "params": {
          "selectMode": "single",
          "step": "cs_step_hurdle_detail"
        }
      },
      "cs_text_channel": {
        "pos": {
          "x": 1000,
          "y": 20,
          "zIndex": 14
        },
        "type": "TextWidget",
        "params": {
          "text": "Hurdles by Channel"
        }
      },
      "cs_text_channel_firm": {
        "pos": {
          "x": 150,
          "y": 210,
          "zIndex": 14
        },
        "type": "TextWidget",
        "params": {
          "text": "Hurdles by Channel and Firm"
        }
      },
      "cs_text_firm": {
        "pos": {
          "x": 1000,
          "y": 20,
          "zIndex": 14
        },
        "type": "TextWidget",
        "params": {
          "text": "Hurdles by Firm"
        }
      },
      "cs_text_legend_100_1": {
        "pos": {
          "x": 250,
          "y": 220,
          "zIndex": 5
        },
        "type": "TextWidget",
        "params": {
          "textAlignment": "left",
          "fontSize": 16,
          "text": "100K",
          "textColor": "rgb(24, 48, 92)"
        }
      },
      "cs_text_legend_100_2": {
        "pos": {
          "x": 250,
          "y": 220,
          "zIndex": 5
        },
        "type": "TextWidget",
        "params": {
          "textAlignment": "left",
          "fontSize": 16,
          "text": "100K",
          "textColor": "rgb(24, 48, 92)"
        }
      },
      "cs_text_legend_100_3": {
        "pos": {
          "x": 250,
          "y": 220,
          "zIndex": 5
        },
        "type": "TextWidget",
        "params": {
          "textAlignment": "left",
          "fontSize": 16,
          "text": "100K",
          "textColor": "rgb(24, 48, 92)"
        }
      },
      "cs_text_legend_10_1": {
        "pos": {
          "x": 250,
          "y": 220,
          "zIndex": 5
        },
        "type": "TextWidget",
        "params": {
          "textAlignment": "left",
          "fontSize": 16,
          "text": "10K",
          "textColor": "rgb(24, 48, 92)"
        }
      },
      "cs_text_legend_10_2": {
        "pos": {
          "x": 250,
          "y": 220,
          "zIndex": 5
        },
        "type": "TextWidget",
        "params": {
          "textAlignment": "left",
          "fontSize": 16,
          "text": "10K",
          "textColor": "rgb(24, 48, 92)"
        }
      },
      "cs_text_legend_10_3": {
        "pos": {
          "x": 250,
          "y": 220,
          "zIndex": 5
        },
        "type": "TextWidget",
        "params": {
          "textAlignment": "left",
          "fontSize": 16,
          "text": "10K",
          "textColor": "rgb(24, 48, 92)"
        }
      },
      "cs_text_trending": {
        "pos": {
          "x": 1000,
          "y": 20,
          "zIndex": 14
        },
        "type": "TextWidget",
        "params": {
          "text": "Hurdles Trending"
        }
      },
      "cs_text_yoy10": {
        "pos": {
          "x": 1000,
          "y": 20,
          "zIndex": 14
        },
        "type": "TextWidget",
        "params": {
          "text": "10k YoY%",
          "textColor": "rgb(52, 74, 95)"
        }
      },
      "cs_text_yoy100": {
        "pos": {
          "x": 1000,
          "y": 20,
          "zIndex": 14
        },
        "type": "TextWidget",
        "params": {
          "text": "100k YoY%",
          "textColor": "rgb(52, 74, 95)"
        }
      },
      "cs_toggle_hurdle_type": {
        "pos": {
          "w": 130,
          "x": 580,
          "y": 80,
          "zIndex": 3
        },
        "type": "PillBox",
        "params": {
          "selectMode": "multi",
          "step": "cs_step_hurdle_type"
        }
      }
    },
    "steps": {
      "cs_step_hurdle_type": {
        "selectMode": "multi",
        "query": {
          "measures": [
            [
              "count",
              "*"
            ]
          ],
          "groups": [
            "hurdle_type"
          ],
          "order": [
            [
              -1,
              {
                "ascending": false
              }
            ]
          ]
        },
        "extra": {
          "chartType": "hbar"
        },
        "em": "DS_Hurdle_Summary",
        "isGlobal": false,
        "start": [],
        "useGlobal": true,
        "type": "aggregate",
        "isFacet": true
      },
      "cs_step_channel": {
        "selectMode": "single",
        "query": {
          "measures": [
            [
              "sum",
              "hurdle_count"
            ]
          ],
          "groups": [
            "firm_channel",
            "hurdle_type"
          ],
          "filters": [
            [
              "week_end_date",
              [
                [
                  [
                    "year",
                    0
                  ],
                  [
                    "year",
                    0
                  ]
                ]
              ],
              ">=<="
            ]
          ],
          "order": [
            [
              -1,
              {
                "ascending": false
              }
            ]
          ]
        },
        "extra": {
          "chartType": "stackhbar"
        },
        "em": "DS_Hurdle_Summary",
        "isGlobal": false,
        "start": null,
        "useGlobal": true,
        "type": "aggregate",
        "isFacet": true
      },
      "cs_step_channel_name": {
        "selectMode": "single",
        "query": {
          "measures": [
            [
              "count",
              "*"
            ]
          ],
          "groups": [
            "firm_channel"
          ],
          "order": [
            [
              "firm_channel",
              {
                "ascending": true
              }
            ]
          ]
        },
        "extra": {
          "chartType": "hbar"
        },
        "em": "DS_Hurdle_Summary",
        "isGlobal": false,
        "start": null,
        "useGlobal": true,
        "type": "aggregate",
        "isFacet": true
      },
      "cs_step_hurdle_detail": {
        "selectMode": "single",
        "query": {
          "values": [
            "week_end_text",
            "hurdle_type",
            "territory_name",
            "rep_name",
            "firm_name",
            "office_city",
            "office_state",
            "sales_amount"
          ],
          "filters": [
            [
              "week_end_date",
              [
                [
                  [
                    "year",
                    0
                  ],
                  [
                    "year",
                    0
                  ]
                ]
              ],
              ">=<="
            ]
          ],
          "order": [
            [
              "week_end_text",
              {
                "ascending": false
              }
            ]
          ]
        },
        "extra": {
          "chartType": "valuestable"
        },
        "em": "DS_Hurdle_Summary",
        "isGlobal": false,
        "start": null,
        "useGlobal": true,
        "type": "grain",
        "isFacet": true
      },
      "cs_step_firm_name": {
        "selectMode": "single",
        "query": {
          "measures": [
            [
              "count",
              "*"
            ]
          ],
          "groups": [
            "firm_name"
          ],
          "order": [
            [
              "firm_name",
              {
                "ascending": false
              }
            ]
          ]
        },
        "extra": {
          "chartType": "hbar"
        },
        "em": "DS_Hurdle_Summary",
        "isGlobal": false,
        "start": null,
        "useGlobal": true,
        "type": "aggregate",
        "isFacet": true
      },
      "cs_step_hurdles_yoy": {
        "selectMode": "single",
        "query": {
          "measures": [
            [
              "avg",
              "10k_yoy_pct"
            ],
            [
              "avg",
              "100k_yoy_pct"
            ]
          ],
          "pigql": "q = load \"DS_Hurdle_Summary\";\nq = filter q by firm_name in {{ selection(cs_step_firm_name) }};\nq = filter q by firm_channel in {{ selection(cs_step_channel_name) }};\nq = filter q by week in {{ results(cs_step_week_number) }};\nq = group q by all;\nc = filter q by date('week_end_date_Year', 'week_end_date_Month', 'week_end_date_Day') in [\"current year\"..\"current day\"];\np = filter q by date('py_week_end_date_Year', 'py_week_end_date_Month', 'py_week_end_date_Day') in [\"current year\"..\"current day\"];\nc1 = filter c by hurdle_type == \"10K\";\nc1 = foreach c1 generate sum('hurdle_count') as 'cy_hurdles_10k', sum('hurdle_count') * 0 as 'py_hurdles_10k', sum('hurdle_count') * 0 as 'cy_hurdles_100k', sum('hurdle_count') * 0 as 'py_hurdles_100k';\nc2 = filter c by hurdle_type == \"100K\";\nc2 = foreach c2 generate sum('hurdle_count') * 0 as 'cy_hurdles_10k', sum('hurdle_count') * 0 as 'py_hurdles_10k', sum('hurdle_count') as 'cy_hurdles_100k', sum('hurdle_count') * 0 as 'py_hurdles_100k';\np1 = filter p by hurdle_type == \"10K\";\np1 = foreach p1 generate sum('hurdle_count') * 0 as 'cy_hurdles_10k', sum('hurdle_count') as 'py_hurdles_10k', sum('hurdle_count') * 0 as 'cy_hurdles_100k', sum('hurdle_count') * 0 as 'py_hurdles_100k';\np2 = filter p by hurdle_type == \"100K\";\np2 = foreach p2 generate sum('hurdle_count') * 0 as 'cy_hurdles_10k', sum('hurdle_count') * 0 as 'py_hurdles_10k', sum('hurdle_count') * 0 as 'cy_hurdles_100k', sum('hurdle_count') as 'py_hurdles_100k';\ns = union p1, p2, c1, c2;\ns = group s by all;\ns = foreach s generate sum('cy_hurdles_10k') / sum('py_hurdles_10k') - 1 as 'avg_10k_yoy_pct',  sum('cy_hurdles_100k') / sum('py_hurdles_100k') - 1 as 'avg_100k_yoy_pct';\n"
        },
        "extra": {
          "chartType": "hbar"
        },
        "em": "DS_Sales_Objective",
        "isGlobal": false,
        "start": null,
        "useGlobal": true,
        "type": "aggregate",
        "isFacet": true
      },
      "cs_step_firm": {
        "selectMode": "single",
        "query": {
          "measures": [
            [
              "sum",
              "hurdle_count"
            ]
          ],
          "groups": [
            "firm_name",
            "hurdle_type"
          ],
          "filters": [
            [
              "week_end_date",
              [
                [
                  [
                    "year",
                    0
                  ],
                  [
                    "year",
                    0
                  ]
                ]
              ],
              ">=<="
            ]
          ],
          "order": [
            [
              -1,
              {
                "ascending": false
              }
            ]
          ]
        },
        "extra": {
          "chartType": "stackhbar"
        },
        "em": "DS_Hurdle_Summary",
        "isGlobal": false,
        "start": null,
        "useGlobal": true,
        "type": "aggregate",
        "isFacet": true
      },
      "cs_step_week_text": {
        "selectMode": "single",
        "query": {
          "measures": [
            [
              "count",
              "*"
            ]
          ],
          "groups": [
            "week_end_text"
          ],
          "filters": [
            [
              "week_end_date",
              [
                [
                  [
                    "year",
                    0
                  ],
                  [
                    "year",
                    1
                  ]
                ]
              ],
              ">=<="
            ]
          ],
          "order": [
            [
              "week_end_text",
              {
                "ascending": false
              }
            ]
          ]
        },
        "extra": {
          "chartType": "hbar"
        },
        "em": "DS_Hurdle_Summary",
        "isGlobal": false,
        "start": null,
        "useGlobal": true,
        "type": "aggregate",
        "isFacet": true
      },
      "cs_step_week_counts": {
        "selectMode": "single",
        "query": {
          "measures": [
            [
              "sum",
              "hurdle_count"
            ]
          ],
          "groups": [
            [
              "week_end_date_Year",
              "week_end_date_Month",
              "week_end_date_Day"
            ],
            "hurdle_type"
          ],
          "filters": [
            [
              "hurdle_count",
              [
                [
                  0
                ]
              ],
              ">"
            ],
            [
              "week_end_date",
              [
                [
                  [
                    "year",
                    0
                  ],
                  [
                    "year",
                    0
                  ]
                ]
              ],
              ">=<="
            ]
          ]
        },
        "extra": {
          "chartType": "time"
        },
        "em": "DS_Hurdle_Summary",
        "isGlobal": false,
        "start": null,
        "useGlobal": true,
        "type": "aggregate",
        "isFacet": true
      },
      "cs_step_week_number": {
        "selectMode": "single",
        "query": {
          "measures": [
            [
              "sum",
              "week",
              null,
              {
                "display": "Add axis label here"
              }
            ]
          ],
          "pigql": "q = load \"DS_Hurdle_Summary\";\nq = filter q by week_end_text in {{ selection(cs_step_week_text) }};\nq = group q by week;\nq = foreach q generate week;",
          "groups": [
            "week"
          ]
        },
        "extra": {
          "chartType": "hbar"
        },
        "em": "DS_Hurdle_Summary",
        "isGlobal": false,
        "start": null,
        "useGlobal": false,
        "type": "aggregate",
        "isFacet": false
      },
      "cs_step_date_selector": {
        "selectMode": "single",
        "query": {
          "measures": [
            [
              "count",
              "*"
            ]
          ],
          "groups": [
            [
              "week_end_date_Year",
              "week_end_date_Month",
              "week_end_date_Day"
            ]
          ]
        },
        "extra": {
          "chartType": "time"
        },
        "em": "DS_Hurdle_Summary",
        "isGlobal": false,
        "start": [
          [
            [
              "year",
              0
            ],
            [
              "year",
              1
            ]
          ]
        ],
        "useGlobal": true,
        "type": "aggregate",
        "isFacet": true
      }
    },
    "layouts": {
      "default": {
        "page:0": [
          "cs_box_putnam_logo {colspan=6, hpad=-10, vpad=10} | row: {height=100}",
          "cs_box_header_1 {colspan=6, rowspan=3, hpad=-15, vpad=-5} | row: {height=10}",
          "cs_header_hurdles {colspan=6, hpad=0, vpad=0}",
          "row: {height=10}",
          "cs_filter_channel {colspan=2, hpad=5, vpad=5} | cs_filter_firm {colspan=4, hpad=5, vpad=5} | row: {height=65}",
          "cs_filter_week {colspan=3, hpad=5, vpad=5} | cs_toggle_hurdle_type {colspan=3, hpad=5, vpad=5} | row: {height=65}",
          "row: {height=20}",
          "cs_box_bar_1 {colspan=6, hpad=-15, vpad=-2} | row: {height=3}",
          "cs_box_bar_2 {colspan=6, rowspan=3, hpad=-15, vpad=-2} | row: {height=5}",
          "cs_number_10k_yoy {colspan=3} | cs_number_100k_yoy {colspan=3}",
          "cs_text_yoy10 {colspan=3} | cs_text_yoy100 {colspan=3}",
          "cs_box_bar_3 {colspan=6, hpad=-15, vpad=-2} | row: {height=3}",
          "row: {height=10}",
          "cs_text_channel {colspan=6, hpad=5, vpad=5} | row: {height=preferred}",
          "row: {height=10}",
          "cs_box_legend_100_1 {colspan=1, hpad=5, vpad=5} | cs_text_legend_100_1 {colspan=1, hpad=-15, vpad=5} | cs_box_legend_10_1 {colspan=1, hpad=5, vpad=5} | cs_text_legend_10_1 {colspan=1, hpad=-15, vpad=5} | row: {height=30}",
          "cs_box_s1c1 {colspan=6, zindex=-1}, cs_chart_channel {colspan=6, hpad=1, vpad=1} | row: {height=200}",
          "row: {height=10}",
          "cs_text_firm {colspan=6, hpad=5, vpad=5} | row: {height=preferred}",
          "row: {height=10}",
          "cs_box_legend_100_2 {colspan=1, hpad=5, vpad=5} | cs_text_legend_100_2 {colspan=1, hpad=-15, vpad=5} | cs_box_legend_10_2 {colspan=1, hpad=5, vpad=5} | cs_text_legend_10_2 {colspan=1, hpad=-15, vpad=5} | row: {height=30}",
          "cs_box_s1c2 {colspan=6, zindex=-1}, cs_chart_firm {colspan=6, hpad=1, vpad=1} | row: {height=300}",
          "row: {height=10}",
          "cs_text_trending {colspan=6, hpad=5, vpad=5} | row: {height=preferred}",
          "row: {height=10}",
          "cs_box_legend_100_3 {colspan=1, hpad=5, vpad=5} | cs_text_legend_100_3 {colspan=1, hpad=-15, vpad=5} | cs_box_legend_10_3 {colspan=1, hpad=5, vpad=5} | cs_text_legend_10_3 {colspan=1, hpad=-15, vpad=5} | row: {height=30}",
          "cs_box_s1c3 {colspan=6, zindex=-1}, cs_chart_trending {colspan=6, hpad=1, vpad=1} | row: {height=300}",
          "row: {height=10}",
          "cs_table_hurdle_detail {colspan=6, hpad=1, vpad=1} | row: {height=300}"
        ]
      }
    }
  },
  "_url": "/insights/internal_api/v1.0/esObject/lens/0FK13000000KykJGAS/json",
  "_uid": "0FK13000000KykJGAS",
  "edgemarts": {
    "emName2": {
      "_type": "edgemart",
      "_uid": "0Fb13000000PAtQCAW"
    },
    "emName": {
      "_type": "edgemart",
      "_uid": "0Fb13000000PAtaCAG"
    }
  }
}
