{
  "_container": {
    "_container": "0FK13000000KylCGAS",
    "_type": "container"
  },
  "lastRefresh": 1448318366,
  "_type": "dashboard",
  "_createdDateTime": 1448365427,
  "_lastModifiedBy": {
    "_type": "user",
    "name": "Andrew Beder",
    "_uid": "0051300000C0ZmhAAF",
    "profilePhotoUrl": "https://c.na19.content.force.com/profilephoto/005/T"
  },
  "description": "",
  "_createdBy": {
    "_type": "user",
    "name": "Andrew Beder",
    "_uid": "0051300000C0ZmhAAF",
    "profilePhotoUrl": "https://c.na19.content.force.com/profilephoto/005/T"
  },
  "assetPreviewAllow": true,
  "stateVersion": 1,
  "folder": {
    "_type": "folder",
    "name": "My Private App",
    "_uid": "0051300000C0ZmhAAF"
  },
  "_files": {
    "assetPreviewThumb": {
      "fileName": "assetPreviewThumb",
      "fileSize": 433,
      "lensId": "0FK13000000KylCGAS",
      "_type": "lensfile",
      "lastModified": 1448365429,
      "_url": "/insights/internal_api/v1.0/esObject/lens/0FK13000000KylCGAS/lensfile/0FJ13000000KylCGAS/data?lastModified=1448365429",
      "_uid": "0FJ13000000KylCGAS",
      "contentType": "image/png"
    }
  },
  "name": "WIP AB RIA Opportunities",
  "_permissions": {
    "modify": true,
    "view": true
  },
  "lastModified": 1448365427,
  "assetSharingUrl": "https://na19.salesforce.com/analytics/wave/dashboard?assetId=0FK13000000KylCGAS&orgId=00D30000000Xw8g&loginHost=na19.salesforce.com&urlType=sharing",
  "state": {
    "widgets": {
      "box_9": {
        "pos": {
          "w": 210,
          "x": 1110,
          "h": 60,
          "y": 10,
          "zIndex": 26
        },
        "type": "BoxWidget",
        "params": {
          "backgroundColor": "rgb(255, 255, 255)",
          "borderColor": "rgba(0, 0, 0, 0)"
        }
      },
      "cs_box_bar": {
        "pos": {
          "w": 180,
          "x": 1120,
          "h": 1,
          "y": 10,
          "zIndex": 0
        },
        "type": "BoxWidget",
        "params": {
          "backgroundColor": "rgb(107, 169, 215)",
          "borderColor": "rgba(0, 0, 0, 0)"
        }
      },
      "cs_box_header_1": {
        "pos": {
          "w": 180,
          "x": 1120,
          "h": 1,
          "y": 10,
          "zIndex": 6
        },
        "type": "BoxWidget",
        "params": {
          "backgroundColor": "rgb(26, 127, 186)",
          "borderColor": "rgba(0, 0, 0, 0)"
        }
      },
      "cs_box_putnam_logo": {
        "pos": {
          "w": 240,
          "x": 0,
          "h": 70,
          "y": 0,
          "zIndex": 22
        },
        "type": "BoxWidget",
        "params": {
          "imgUrl": "015a00000036jI2",
          "backgroundColor": "rgba(0, 140, 201, 0)",
          "borderColor": "rgba(0, 0, 0, 0)"
        }
      },
      "cs_box_s1c1": {
        "pos": {
          "w": 180,
          "x": 1120,
          "h": 1,
          "y": 10,
          "zIndex": 6
        },
        "type": "BoxWidget",
        "params": {
          "backgroundColor": "rgb(107, 169, 215)",
          "borderColor": "rgba(0, 0, 0, 0)"
        }
      },
      "cs_box_s1c2": {
        "pos": {
          "w": 180,
          "x": 1120,
          "h": 1,
          "y": 10,
          "zIndex": 6
        },
        "type": "BoxWidget",
        "params": {
          "backgroundColor": "rgb(107, 169, 215)",
          "borderColor": "rgba(0, 0, 0, 0)"
        }
      },
      "cs_box_s1c3": {
        "pos": {
          "w": 180,
          "x": 1120,
          "h": 1,
          "y": 10,
          "zIndex": 6
        },
        "type": "BoxWidget",
        "params": {
          "backgroundColor": "rgb(107, 169, 215)",
          "borderColor": "rgba(0, 0, 0, 0)"
        }
      },
      "cs_box_s1c4": {
        "pos": {
          "w": 180,
          "x": 1120,
          "h": 1,
          "y": 10,
          "zIndex": 0
        },
        "type": "BoxWidget",
        "params": {
          "backgroundColor": "rgb(107, 169, 215)",
          "borderColor": "rgba(0, 0, 0, 0)"
        }
      },
      "cs_chart_product": {
        "pos": {
          "w": 500,
          "x": 550,
          "h": 300,
          "y": 540,
          "zIndex": 2
        },
        "type": "ChartWidget",
        "params": {
          "legend": true,
          "chartType": "hbar",
          "step": "cs_step_product"
        }
      },
      "cs_chart_territory": {
        "pos": {
          "w": 500,
          "x": 30,
          "h": 300,
          "y": 560,
          "zIndex": 7
        },
        "type": "ChartWidget",
        "params": {
          "chartType": "hbar",
          "step": "cs_step_territory"
        }
      },
      "cs_filter_branch": {
        "pos": {
          "w": 250,
          "x": 420,
          "h": 50,
          "y": 70,
          "zIndex": 100002
        },
        "type": "ListSelector",
        "params": {
          "expanded": false,
          "selectMode": "multi",
          "measureField": "count",
          "step": "cs_step_branch_name",
          "title": "Branch"
        }
      },
      "cs_filter_firm": {
        "pos": {
          "w": 130,
          "x": 240,
          "h": 50,
          "y": 70,
          "zIndex": 100001
        },
        "type": "ListSelector",
        "params": {
          "expanded": false,
          "selectMode": "multi",
          "step": "cs_step_firm",
          "title": "Firm"
        }
      },
      "cs_filter_territory": {
        "pos": {
          "w": 130,
          "x": 50,
          "h": 50,
          "y": 70,
          "zIndex": 100000
        },
        "type": "ListSelector",
        "params": {
          "expanded": false,
          "selectMode": "multi",
          "step": "Territory_Name_3",
          "title": "Territory"
        }
      },
      "cs_header_opportunities": {
        "pos": {
          "x": 1120,
          "y": 10,
          "zIndex": 7
        },
        "type": "TextWidget",
        "params": {
          "fontSize": 24,
          "text": "RIA Opportunities",
          "textColor": "rgb(255, 255, 255)"
        }
      },
      "cs_table_opp_detail": {
        "pos": {
          "w": 890,
          "x": 40,
          "h": 300,
          "y": 200,
          "zIndex": 0
        },
        "type": "ValuesTable",
        "params": {
          "selectMode": "single",
          "step": "cs_step_opp_detail"
        }
      },
      "cs_text_opp_detail": {
        "pos": {
          "x": 320,
          "y": 140,
          "zIndex": 3
        },
        "type": "TextWidget",
        "params": {
          "text": "Opportunity Detail"
        }
      },
      "cs_text_product": {
        "pos": {
          "x": 570,
          "y": 500,
          "zIndex": 5
        },
        "type": "TextWidget",
        "params": {
          "text": "Opportunities by Product"
        }
      },
      "cs_text_territory": {
        "pos": {
          "x": 90,
          "y": 500,
          "zIndex": 4
        },
        "type": "TextWidget",
        "params": {
          "text": "Opportunities by Territory"
        }
      },
      "cs_filter_stage": {
        "pos": {
          "w": 130,
          "x": 710,
          "h": 50,
          "y": 70,
          "zIndex": 100003
        },
        "type": "ListSelector",
        "params": {
          "expanded": false,
          "step": "cs_step_stage",
          "title": "Stage"
        }
      }
    },
    "steps": {
      "Territory_Name_3": {
        "selectMode": "multi",
        "query": {
          "measures": [
            [
              "count",
              "*"
            ]
          ],
          "groups": [
            "territory_number"
          ],
          "filters": [
            [
              "recordtype_name",
              [
                "PRM RIA Opportunity"
              ],
              "in"
            ],
            [
              "territory_number",
              [
                "10"
              ],
              "matches"
            ]
          ]
        },
        "extra": {
          "chartType": "hbar"
        },
        "em": "DS_RIA_Opportunities",
        "isGlobal": false,
        "start": [],
        "useGlobal": true,
        "type": "aggregate",
        "isFacet": true
      },
      "Territory_Name_5": {
        "selectMode": "single",
        "query": {
          "measures": [
            [
              "count",
              "*"
            ]
          ],
          "groups": [
            "territory_number"
          ],
          "filters": [
            [
              "recordtype_name",
              [
                "PRM RIA Opportunity"
              ],
              "in"
            ],
            [
              "territory_number",
              [
                "10"
              ],
              "matches"
            ]
          ]
        },
        "extra": {
          "chartType": "hbar"
        },
        "em": "DS_RIA_Opportunities",
        "isGlobal": false,
        "start": null,
        "useGlobal": true,
        "type": "aggregate",
        "isFacet": true
      },
      "cs_step_branch_name": {
        "selectMode": "multi",
        "query": {
          "measures": [
            [
              "count",
              "*"
            ]
          ],
          "groups": [
            "Account_ZipCode_City"
          ],
          "filters": [
            [
              "recordtype_name",
              [
                "PRM RIA Opportunity"
              ],
              "in"
            ]
          ],
          "order": [
            [
              -1,
              {
                "ascending": true
              }
            ]
          ]
        },
        "extra": {
          "chartType": "hbar"
        },
        "em": "DS_RIA_Opportunities",
        "isGlobal": false,
        "start": [],
        "useGlobal": true,
        "type": "aggregate",
        "isFacet": true
      },
      "cs_step_firm": {
        "selectMode": "multi",
        "query": {
          "measures": [
            [
              "count",
              "*"
            ]
          ],
          "groups": [
            "Parent_Account"
          ],
          "filters": [
            [
              "recordtype_name",
              [
                "PRM RIA Opportunity"
              ],
              "in"
            ]
          ],
          "order": [
            [
              -1,
              {
                "ascending": true
              }
            ]
          ]
        },
        "extra": {
          "chartType": "hbar"
        },
        "em": "DS_RIA_Opportunities",
        "isGlobal": false,
        "start": [],
        "useGlobal": true,
        "type": "aggregate",
        "isFacet": true
      },
      "cs_step_product": {
        "selectMode": "single",
        "query": {
          "measures": [
            [
              "sum",
              "estimated_dollar_amount__c"
            ]
          ],
          "groups": [
            "product_name"
          ],
          "filters": [
            [
              "recordtype_name",
              [
                "PRM RIA Opportunity"
              ],
              "in"
            ],
            [
              "territory_number",
              [
                "10"
              ],
              "matches"
            ]
          ],
          "order": [
            [
              -1,
              {
                "ascending": false
              }
            ]
          ]
        },
        "extra": {
          "chartType": "hbar"
        },
        "em": "DS_RIA_Opportunities",
        "isGlobal": false,
        "start": [],
        "useGlobal": true,
        "type": "aggregate",
        "isFacet": true
      },
      "cs_step_territory": {
        "selectMode": "single",
        "query": {
          "measures": [
            [
              "sum",
              "estimated_dollar_amount__c"
            ]
          ],
          "groups": [
            "territory_number"
          ],
          "filters": [
            [
              "recordtype_name",
              [
                "PRM RIA Opportunity"
              ],
              "in"
            ],
            [
              "territory_number",
              [
                "10"
              ],
              "matches"
            ]
          ],
          "order": [
            [
              -1,
              {
                "ascending": false
              }
            ]
          ]
        },
        "extra": {
          "chartType": "hbar"
        },
        "em": "DS_RIA_Opportunities",
        "isGlobal": false,
        "start": null,
        "useGlobal": true,
        "type": "aggregate",
        "isFacet": true
      },
      "cs_step_opp_detail": {
        "selectMode": "single",
        "query": {
          "values": [
            "wholesaler_name",
            "product_name",
            "rep_name",
            "estimated_dollar_amount__c",
            "estimated_close_date__c"
          ],
          "filters": [
            [
              "recordtype_name",
              [
                "PRM RIA Opportunity"
              ],
              "in"
            ],
            [
              "territory_number",
              [
                "10"
              ],
              "matches"
            ]
          ]
        },
        "extra": {
          "chartType": "valuestable"
        },
        "em": "DS_RIA_Opportunities",
        "isGlobal": false,
        "start": null,
        "useGlobal": true,
        "type": "grain",
        "isFacet": true
      },
      "cs_step_stage": {
        "selectMode": "single",
        "query": {
          "measures": [
            [
              "count",
              "*"
            ]
          ],
          "groups": [
            "stage_name"
          ],
          "filters": [
            [
              "recordtype_name",
              [
                "PRM RIA Opportunity"
              ],
              "in"
            ]
          ]
        },
        "extra": {
          "chartType": "hbar"
        },
        "em": "DS_RIA_Opportunities",
        "isGlobal": false,
        "start": [["In Progress"]],
        "useGlobal": true,
        "type": "aggregate",
        "isFacet": true
      }
    },
    "layouts": {
      "default": {
        "page:0": [
          "cs_box_putnam_logo {colspan=6, hpad=-10, vpad=10} | row: {height=100}",
          "cs_box_header_1 {colspan=6, rowspan=3, hpad=-15, vpad=-5} | row: {height=10}",
          "cs_header_opportunities {colspan=6, hpad=0, vpad=0}",
          "row: {height=10}",
          "cs_filter_territory {colspan=3, hpad=5, vpad=5} | cs_filter_stage {colspan=3, hpad=5, vpad=5}",
          "cs_filter_firm {colspan=3, hpad=5, vpad=5} | cs_filter_branch {colspan=3, hpad=5, vpad=5}",
          "row: {height=10}",
          "cs_box_bar {colspan=6} | row: {height=2}",
          "row: {height=10}",
          "cs_text_territory {colspan=6, hpad=5, vpad=5} | row: {height=preferred}",
          "row: {height=10}",
          "cs_box_s1c2 {colspan=6, zindex=-1}, cs_chart_territory {colspan=6, hpad=1, vpad=1} | row: {height=300}",
          "row: {height=10}",
          "cs_text_product {colspan=6, hpad=5, vpad=5} | row: {height=preferred}",
          "row: {height=10}",
          "cs_box_s1c3 {colspan=6, zindex=-1}, cs_chart_product {colspan=6, hpad=1, vpad=1} | row: {height=300}",
          "row: {height=10}",
          "cs_text_opp_detail {colspan=6, hpad=5, vpad=5}",
          "row: {height=10}",
          "cs_box_s1c1 {colspan=6, zindex=-1}, cs_table_opp_detail {colspan=6, hpad=0, vpad=0} | row: {height=300}"
        ]
      }
    }
  },
  "_url": "/insights/internal_api/v1.0/esObject/lens/0FK13000000KylCGAS/json",
  "_uid": "0FK13000000KylCGAS",
  "edgemarts": {
    "emName": {
      "_type": "edgemart",
      "_uid": "0Fb13000000PAudCAG"
    }
  }
}
