{
  "_container": {
    "_container": "0FK13000000KylHGAS",
    "_type": "container"
  },
  "lastRefresh": 1448369468,
  "_type": "dashboard",
  "_createdDateTime": 1448368055,
  "_lastModifiedBy": {
    "_type": "user",
    "name": "Andrew Beder",
    "_uid": "0051300000C0ZmhAAF",
    "profilePhotoUrl": "https://c.na19.content.force.com/profilephoto/005/T"
  },
  "description": "",
  "_createdBy": {
    "_type": "user",
    "name": "Andrew Beder",
    "_uid": "0051300000C0ZmhAAF",
    "profilePhotoUrl": "https://c.na19.content.force.com/profilephoto/005/T"
  },
  "assetPreviewAllow": true,
  "stateVersion": 1,
  "folder": {
    "_type": "folder",
    "name": "My Private App",
    "_uid": "0051300000C0ZmhAAF"
  },
  "_files": {
    "assetPreviewThumb": {
      "fileName": "assetPreviewThumb",
      "fileSize": 7585,
      "lensId": "0FK13000000KylHGAS",
      "_type": "lensfile",
      "lastModified": 1448375566,
      "_url": "/insights/internal_api/v1.0/esObject/lens/0FK13000000KylHGAS/lensfile/0FJ13000000KylHGAS/data?lastModified=1448375566",
      "_uid": "0FJ13000000KylHGAS",
      "contentType": "image/png"
    }
  },
  "name": "WIP AB Touchpoints",
  "_permissions": {
    "modify": true,
    "view": true
  },
  "lastModified": 1448375565,
  "assetSharingUrl": "https://na19.salesforce.com/analytics/wave/dashboard?assetId=0FK13000000KylHGAS&orgId=00D30000000Xw8g&loginHost=na19.salesforce.com&urlType=sharing",
  "state": {
    "widgets": {
      "box_8": {
        "pos": {
          "w": 260,
          "x": 1120,
          "h": 60,
          "y": 0,
          "zIndex": 18
        },
        "type": "BoxWidget",
        "params": {
          "backgroundColor": "rgb(255, 255, 255)",
          "borderColor": "rgba(0, 0, 0, 0)"
        }
      },
      "cs_box_bar": {
        "pos": {
          "w": 180,
          "x": 1120,
          "h": 1,
          "y": 10,
          "zIndex": 0
        },
        "type": "BoxWidget",
        "params": {
          "backgroundColor": "rgb(107, 169, 215)",
          "borderColor": "rgba(0, 0, 0, 0)"
        }
      },
      "cs_box_header_1": {
        "pos": {
          "w": 180,
          "x": 1120,
          "h": 1,
          "y": 10,
          "zIndex": 6
        },
        "type": "BoxWidget",
        "params": {
          "backgroundColor": "rgb(26, 127, 186)",
          "borderColor": "rgba(0, 0, 0, 0)"
        }
      },
      "cs_box_putnam_logo": {
        "pos": {
          "w": 240,
          "x": 0,
          "h": 70,
          "y": 0,
          "zIndex": 22
        },
        "type": "BoxWidget",
        "params": {
          "imgUrl": "015a00000036jI2",
          "backgroundColor": "rgba(0, 140, 201, 0)",
          "borderColor": "rgba(0, 0, 0, 0)"
        }
      },
      "cs_box_s1c1": {
        "pos": {
          "w": 180,
          "x": 1120,
          "h": 1,
          "y": 10,
          "zIndex": 6
        },
        "type": "BoxWidget",
        "params": {
          "backgroundColor": "rgb(107, 169, 215)",
          "borderColor": "rgba(0, 0, 0, 0)"
        }
      },
      "cs_box_s1c2": {
        "pos": {
          "w": 180,
          "x": 1120,
          "h": 1,
          "y": 10,
          "zIndex": 6
        },
        "type": "BoxWidget",
        "params": {
          "backgroundColor": "rgb(107, 169, 215)",
          "borderColor": "rgba(0, 0, 0, 0)"
        }
      },
      "cs_box_s1c3": {
        "pos": {
          "w": 180,
          "x": 1120,
          "h": 1,
          "y": 10,
          "zIndex": 6
        },
        "type": "BoxWidget",
        "params": {
          "backgroundColor": "rgb(107, 169, 215)",
          "borderColor": "rgba(0, 0, 0, 0)"
        }
      },
      "cs_box_s1c4": {
        "pos": {
          "w": 180,
          "x": 1120,
          "h": 1,
          "y": 10,
          "zIndex": 0
        },
        "type": "BoxWidget",
        "params": {
          "backgroundColor": "rgb(107, 169, 215)",
          "borderColor": "rgba(0, 0, 0, 0)"
        }
      },
      "cs_chart_date": {
        "pos": {
          "w": 740,
          "x": 690,
          "h": 300,
          "y": 180,
          "zIndex": 2
        },
        "type": "ChartWidget",
        "params": {
          "chartType": "time",
          "step": "cs_step_date_2"
        }
      },
      "cs_chart_region": {
        "pos": {
          "w": 630,
          "x": 40,
          "h": 220,
          "y": 180,
          "zIndex": 5
        },
        "type": "ChartWidget",
        "params": {
          "chartType": "hbar",
          "step": "cs_step_region"
        }
      },
      "cs_chart_type": {
        "pos": {
          "w": 500,
          "x": 690,
          "h": 300,
          "y": 520,
          "zIndex": 3
        },
        "type": "ChartWidget",
        "params": {
          "legend": true,
          "chartType": "pie",
          "step": "cs_step_type"
        }
      },
      "cs_chart_territory": {
        "pos": {
          "w": 630,
          "x": 40,
          "h": 300,
          "y": 400,
          "zIndex": 0
        },
        "type": "ChartWidget",
        "params": {
          "chartType": "hbar",
          "step": "cs_step_territory"
        }
      },
      "cs_filter_date": {
        "pos": {
          "w": 220,
          "x": 750,
          "h": 50,
          "y": 10,
          "zIndex": 100002
        },
        "type": "DateSelector",
        "params": {
          "expanded": false,
          "step": "cs_step_date"
        }
      },
      "cs_filter_region": {
        "pos": {
          "w": 150,
          "x": 40,
          "h": 50,
          "y": 70,
          "zIndex": 100004
        },
        "type": "ListSelector",
        "params": {
          "expanded": false,
          "step": "cs_step_region_2"
        }
      },
      "cs_filter_subject": {
        "pos": {
          "w": 150,
          "x": 570,
          "h": 50,
          "y": 70,
          "zIndex": 100003
        },
        "type": "ListSelector",
        "params": {
          "expanded": false,
          "measureField": "count",
          "step": "cs_step_subject_2"
        }
      },
      "cs_filter_territory": {
        "pos": {
          "w": 130,
          "x": 220,
          "h": 50,
          "y": 70,
          "zIndex": 100000
        },
        "type": "ListSelector",
        "params": {
          "expanded": false,
          "step": "cs_step_territory_name"
        }
      },
      "cs_filter_type": {
        "pos": {
          "w": 160,
          "x": 380,
          "h": 50,
          "y": 70,
          "zIndex": 100001
        },
        "type": "ListSelector",
        "params": {
          "expanded": false,
          "step": "cs_step_type"
        }
      },
      "cs_filter_business_area": {
        "pos": {
          "w": 160,
          "x": 500,
          "h": 50,
          "y": 70,
          "zIndex": 100001
        },
        "type": "ListSelector",
        "params": {
          "expanded": false,
          "step": "cs_step_business_area",
          "title": "Area"
        }
      },
      "cs_header_touchpoints": {
        "pos": {
          "x": 1120,
          "y": 10,
          "zIndex": 7
        },
        "type": "TextWidget",
        "params": {
          "fontSize": 24,
          "text": "Touchpoints",
          "textColor": "rgb(255, 255, 255)"
        }
      },
      "cs_text_detail": {
        "pos": {
          "x": 200,
          "y": 710,
          "zIndex": 9
        },
        "type": "TextWidget",
        "params": {
          "text": "Touchpoint Detail"
        }
      },
      "cs_text_region_territory": {
        "pos": {
          "x": 130,
          "y": 140,
          "zIndex": 4
        },
        "type": "TextWidget",
        "params": {
          "text": "Touchpoints by Region and Territory"
        }
      },
      "cs_text_subject": {
        "pos": {
          "x": 730,
          "y": 480,
          "zIndex": 7
        },
        "type": "TextWidget",
        "params": {
          "text": "Touchpoints by Contact Type"
        }
      },
      "cs_text_trending": {
        "pos": {
          "x": 890,
          "y": 130,
          "zIndex": 6
        },
        "type": "TextWidget",
        "params": {
          "text": "Touchpoint Trending"
        }
      },
      "cs_toggle_trend_mtype": {
        "pos": {
          "w": 260,
          "x": 1190,
          "y": 110,
          "zIndex": 11
        },
        "type": "PillBox",
        "params": {
          "selectMode": "single_required",
          "measureField": "",
          "step": "cs_step_static_measure"
        }
      },
      "cs_table_detail": {
        "pos": {
          "w": 630,
          "x": 40,
          "h": 300,
          "y": 760,
          "zIndex": 8
        },
        "type": "ValuesTable",
        "params": {
          "selectMode": "single",
          "step": "cs_step_detail"
        }
      }
    },
    "steps": {
      "cs_step_date": {
        "selectMode": "single",
        "query": {
          "measures": [
            [
              "count",
              "*"
            ]
          ],
          "groups": [
            [
              "ActivityDate_Year",
              "ActivityDate_Month",
              "ActivityDate_Day"
            ]
          ],
          "filters": [
            [
              "RecordTypeId.Name",
              [
                "PRM Activity Record Type"
              ],
              "in"
            ]
          ]
        },
        "extra": {
          "chartType": "hbar"
        },
        "em": "DS_Activity_SF",
        "isGlobal": false,
        "start": [
          [
            [
              "year",
              0
            ],
            [
              "year",
              1
            ]
          ]
        ],
        "useGlobal": true,
        "type": "aggregate",
        "isFacet": true
      },
      "cs_step_date_2": {
        "selectMode": "single",
        "query": {
          "measures": [
            [
              "count",
              "*"
            ]
          ],
          "groups": "{{ selection(cs_step_static_measure) }}",
          "filters": [
            [
              "RecordTypeId.Name",
              [
                "PRM Activity Record Type"
              ],
              "in"
            ],
            [
              "ActivityDate",
              [
                [
                  [
                    "year",
                    0
                  ],
                  [
                    "year",
                    0
                  ]
                ]
              ],
              ">=<="
            ]
          ]
        },
        "extra": {
          "chartType": "time"
        },
        "em": "DS_Activity_SF",
        "isGlobal": false,
        "start": null,
        "useGlobal": true,
        "type": "aggregate",
        "isFacet": true
      },
      "cs_step_detail": {
        "selectMode": "single",
        "query": {
          "values": [
            "WhoId.Name",
            "Subject",
            "Type",
            "Purpose_Topic_1__c",
            "ActivityDate"
          ],
          "filters": [
            [
              "RecordTypeId.Name",
              [
                "PRM Activity Record Type"
              ],
              "in"
            ]
          ]
        },
        "extra": {
          "chartType": "valuestable"
        },
        "em": "DS_Activity_SF",
        "isGlobal": false,
        "start": null,
        "useGlobal": true,
        "type": "grain",
        "isFacet": true
      },
      "cs_step_region": {
        "selectMode": "single",
        "query": {
          "measures": [
            [
              "count",
              "*"
            ]
          ],
          "groups": [
            "Region__c"
          ],
          "filters": [
            [
              "RecordTypeId.Name",
              [
                "PRM Activity Record Type"
              ],
              "in"
            ]
          ],
          "order": [
            [
              -1,
              {
                "ascending": false
              }
            ]
          ]
        },
        "extra": {
          "chartType": "hbar"
        },
        "em": "DS_Activity_SF",
        "isGlobal": false,
        "start": null,
        "useGlobal": true,
        "type": "aggregate",
        "isFacet": true
      },
      "cs_step_region_2": {
        "selectMode": "single",
        "query": {
          "measures": [
            [
              "count",
              "*"
            ]
          ],
          "groups": [
            "Region__c"
          ]
        },
        "extra": {
          "chartType": "hbar"
        },
        "em": "DS_Activity_SF",
        "isGlobal": false,
        "start": null,
        "useGlobal": true,
        "type": "aggregate",
        "isFacet": true
      },
      "cs_step_static_measure": {
        "selectMode": "single_required",
        "values": [
          {
            "display": "Days",
            "value": [
              [
                "ActivityDate_Year",
                "ActivityDate_Month",
                "ActivityDate_Day"
              ]
            ]
          },
          {
            "display": "Week",
            "value": [
              [
                "ActivityDate_Year",
                "ActivityDate_Week"
              ]
            ]
          },
          {
            "display": "Month",
            "value": [
              [
                "ActivityDate_Year",
                "ActivityDate_Month"
              ]
            ]
          },
          {
            "display": "Quarter",
            "value": [
              [
                "ActivityDate_Year",
                "ActivityDate_Quarter"
              ]
            ]
          }
        ],
        "isGlobal": false,
        "start": [
          [
            [
              "ActivityDate_Year",
              "ActivityDate_Week"
            ]
          ]
        ],
        "useGlobal": false,
        "type": "static",
        "isFacet": false
      },
      "cs_step_type": {
        "selectMode": "single",
        "query": {
          "measures": [
            [
              "count",
              "*"
            ]
          ],
          "groups": [
            "Type"
          ],
          "filters": [
            [
              "RecordTypeId.Name",
              [
                "PRM Activity Record Type"
              ],
              "in"
            ]
          ]
        },
        "extra": {
          "chartType": "pie"
        },
        "em": "DS_Activity_SF",
        "isGlobal": false,
        "start": null,
        "useGlobal": true,
        "type": "aggregate",
        "isFacet": true
      },
      "cs_step_business_area": {
        "selectMode": "single",
        "query": {
          "measures": [
            [
              "count",
              "*"
            ]
          ],
          "groups": [
            "Business_Area__c"
          ],
          "filters": [
            [
              "RecordTypeId.Name",
              [
                "PRM Activity Record Type"
              ],
              "in"
            ]
          ]
        },
        "extra": {
          "chartType": "hbar"
        },
        "em": "DS_Activity_SF",
        "isGlobal": false,
        "start": null,
        "useGlobal": true,
        "type": "aggregate",
        "isFacet": true
      },
      "cs_step_subject_2": {
        "selectMode": "single",
        "query": {
          "measures": [
            [
              "count",
              "*"
            ]
          ],
          "groups": [
            "Subject"
          ],
          "filters": [
            [
              "RecordTypeId.Name",
              [
                "PRM Activity Record Type"
              ],
              "in"
            ]
          ]
        },
        "extra": {
          "chartType": "hbar"
        },
        "em": "DS_Activity_SF",
        "isGlobal": false,
        "start": null,
        "useGlobal": true,
        "type": "aggregate",
        "isFacet": true
      },
      "cs_step_territory": {
        "selectMode": "single",
        "query": {
          "measures": [
            [
              "count",
              "*"
            ]
          ],
          "groups": [
            "Territory__c"
          ],
          "filters": [
            [
              "RecordTypeId.Name",
              [
                "PRM Activity Record Type"
              ],
              "in"
            ]
          ],
          "order": [
            [
              -1,
              {
                "ascending": false
              }
            ]
          ]
        },
        "extra": {
          "chartType": "hbar"
        },
        "em": "DS_Activity_SF",
        "isGlobal": false,
        "start": null,
        "useGlobal": true,
        "type": "aggregate",
        "isFacet": true
      },
      "cs_step_territory_name": {
        "selectMode": "single",
        "query": {
          "measures": [
            [
              "count",
              "*"
            ]
          ],
          "groups": [
            "Territory__c"
          ],
          "filters": [
            [
              "RecordTypeId.Name",
              [
                "PRM Activity Record Type"
              ],
              "in"
            ]
          ],
          "order": [
            [
              "Territory__c",
              {
                "ascending": true
              }
            ]
          ]
        },
        "extra": {
          "chartType": "hbar"
        },
        "em": "DS_Activity_SF",
        "isGlobal": false,
        "start": null,
        "useGlobal": true,
        "type": "aggregate",
        "isFacet": true
      },
      "cs_step_type": {
        "selectMode": "single",
        "query": {
          "measures": [
            [
              "count",
              "*"
            ]
          ],
          "groups": [
            "Type"
          ],
          "filters": [
            [
              "RecordTypeId.Name",
              [
                "PRM Activity Record Type"
              ],
              "in"
            ]
          ],
          "order": [
            [
              -1,
              {
                "ascending": false
              }
            ]
          ]
        },
        "extra": {
          "chartType": "hbar"
        },
        "em": "DS_Activity_SF",
        "isGlobal": false,
        "start": null,
        "useGlobal": true,
        "type": "aggregate",
        "isFacet": true
      }
    },
    "layouts": {
      "default": {
        "page:0": [
          "cs_box_putnam_logo {colspan=6, hpad=-10, vpad=10} | row: {height=100}",
          "cs_box_header_1 {colspan=6, rowspan=3, hpad=-15, vpad=-5} | row: {height=10}",
          "cs_header_touchpoints {colspan=6, hpad=0, vpad=0}",
          "row: {height=10}",
          "cs_filter_region {colspan=2, hpad=5, vpad=5} | cs_filter_territory {colspan=2, hpad=5, vpad=5} | cs_filter_business_area {colspan=2, hpad=5, vpad=5}",
          "cs_filter_subject {colspan=3, hpad=5, vpad=5} | cs_filter_type {colspan=3, hpad=5, vpad=5}",
          "cs_filter_date {colspan=6, hpad=5, vpad=5}",
          "row: {height=10}",
          "cs_box_bar {colspan=6} | row: {height=2}",
          "row: {height=10}",
          "cs_text_region_territory {colspan=6, hpad=5, vpad=5} | row: {height=preferred}",
          "row: {height=10}",
          "cs_box_s1c1 {colspan=6, zindex=-1}, cs_chart_region {colspan=6, hpad=1, vpad=1} | row: {height=200}",
          "row: {height=10}",
          "cs_box_s1c2 {colspan=6, zindex=-1}, cs_chart_territory {colspan=6, hpad=1, vpad=1} | row: {height=300}",
          "row: {height=10}",
          "cs_text_subject {colspan=6, hpad=5, vpad=5}",
          "row: {height=10}",
          "cs_box_s1c3 {colspan=6, zindex=-1}, cs_chart_type {colspan=6, hpad=1, vpad=1} | row: {height=300}",
          "row: {height=10}",
          "cs_text_trending {colspan=6, hpad=5, vpad=5}",
          "row: {height=10}",
          "cs_toggle_trend_mtype {colspan=6, hpad=1, vpad=1}",
          "cs_box_s1c4 {colspan=6, zindex=-1}, cs_chart_date {colspan=6, hpad=1, vpad=1} | row: {height=300}",
          "row: {height=10}",
          "cs_text_detail {colspan=6, hpad=5, vpad=5}",
          "cs_table_detail {colspan=6, hpad=1, vpad=1} | row: {height=300}"
        ]
      }
    }
  },
  "_url": "/insights/internal_api/v1.0/esObject/lens/0FK13000000KylHGAS/json",
  "_uid": "0FK13000000KylHGAS",
  "edgemarts": {
    "emName": {
      "_type": "edgemart",
      "_uid": "0Fb13000000PAv7CAG"
    }
  }
}
